test2.vcd
$date
	Wed May 18 16:55:42 2016
$end
$version
	Icarus Verilog
$end
$timescale
	1s
$end
$scope module testBench $end
$var reg 1 ! clk $end
$scope module cpu $end
$var wire 32 " addBranchOut [31:0] $end
$var wire 32 # aluResult [31:0] $end
$var wire 4 $ aluctrl [3:0] $end
$var wire 32 % branOrPc [31:0] $end
$var wire 1 & clk $end
$var wire 10 ' ctrlUnitOutCode [9:0] $end
$var wire 32 ( dmOutData [31:0] $end
$var wire 32 ) extSign32 [31:0] $end
$var wire 32 * imOutData [31:0] $end
$var wire 32 + mw32Out [31:0] $end
$var wire 32 , pcInputAddr [31:0] $end
$var wire 32 - pcOutAddr [31:0] $end
$var wire 32 . pcPlus4 [31:0] $end
$var wire 32 / reg1Data [31:0] $end
$var wire 32 0 reg2Data [31:0] $end
$var wire 1 1 rst $end
$var wire 32 2 sl2AddOut [31:0] $end
$var wire 32 3 writeData [31:0] $end
$var wire 5 4 writeReg [4:0] $end
$var wire 1 5 zero $end
$scope module pc $end
$var wire 1 & clk $end
$var wire 32 6 inAddr [31:0] $end
$var wire 1 1 rst $end
$var reg 32 7 con [31:0] $end
$var reg 32 8 outAddr [31:0] $end
$upscope $end
$scope module add4 $end
$var wire 32 9 inAddr [31:0] $end
$var wire 32 : outAddr [31:0] $end
$upscope $end
$scope module addBranch $end
$var wire 32 ; inAddr_add [31:0] $end
$var wire 32 < inAddr_sl2 [31:0] $end
$var wire 32 = outAddr [31:0] $end
$upscope $end
$scope module mw32_3 $end
$var wire 32 > in1 [31:0] $end
$var wire 32 ? in2 [31:0] $end
$var wire 32 @ out [31:0] $end
$var wire 1 A sl $end
$upscope $end
$scope module sl2Add $end
$var wire 26 B in26 [25:0] $end
$var wire 4 C in4 [3:0] $end
$var wire 32 D out32 [31:0] $end
$var reg 2 E temp [1:0] $end
$upscope $end
$scope module mw32_4 $end
$var wire 32 F in1 [31:0] $end
$var wire 32 G in2 [31:0] $end
$var wire 32 H out [31:0] $end
$var wire 1 I sl $end
$upscope $end
$scope module im $end
$var wire 32 J inAddr [31:0] $end
$var wire 32 K outContent [31:0] $end
$upscope $end
$scope module controlunit $end
$var wire 1 L clk $end
$var wire 6 M inCode [5:0] $end
$var wire 10 N outCode [9:0] $end
$var reg 10 O result [9:0] $end
$upscope $end
$scope module mw4 $end
$var wire 5 P in1 [4:0] $end
$var wire 5 Q in2 [4:0] $end
$var wire 5 R out [4:0] $end
$var wire 1 S sl $end
$upscope $end
$scope module regHeap $end
$var wire 1 & clk $end
$var wire 5 T readReg1 [4:0] $end
$var wire 5 U readReg2 [4:0] $end
$var wire 32 V reg1Data [31:0] $end
$var wire 32 W reg2Data [31:0] $end
$var wire 1 X regWrite $end
$var wire 32 Y writeData [31:0] $end
$var wire 5 Z writeReg [4:0] $end
$upscope $end
$scope module signext $end
$var wire 16 [ in1 [15:0] $end
$var wire 32 \ out [31:0] $end
$var wire 16 ] temp [15:0] $end
$upscope $end
$scope module mw32 $end
$var wire 32 ^ in1 [31:0] $end
$var wire 32 _ in2 [31:0] $end
$var wire 32 ` out [31:0] $end
$var wire 1 a sl $end
$upscope $end
$scope module aluControl $end
$var wire 2 b aluop [1:0] $end
$var wire 1 c clk $end
$var wire 6 d func [5:0] $end
$var reg 4 e aluctrl [3:0] $end
$upscope $end
$scope module alu $end
$var wire 1 f clk $end
$var wire 4 g ctrl [3:0] $end
$var wire 32 h in1 [31:0] $end
$var wire 32 i in2 [31:0] $end
$var wire 32 j out [31:0] $end
$var reg 32 k result [31:0] $end
$var reg 1 l zero $end
$upscope $end
$scope module dm $end
$var wire 1 & clk $end
$var wire 32 m inAddr [31:0] $end
$var wire 1 n memRead $end
$var wire 1 o memWrite $end
$var wire 32 p outData [31:0] $end
$var wire 32 q writeData [31:0] $end
$upscope $end
$scope module mw32_2 $end
$var wire 32 r in1 [31:0] $end
$var wire 32 s in2 [31:0] $end
$var wire 32 t out [31:0] $end
$var wire 1 u sl $end
$upscope $end
$upscope $end
$upscope $end
$enddefinitions $end
#0
$dumpvars
1u
b10 t
b10 s
b100 r
b0 q
b10 p
0o
1n
b100 m
0l
b100 k
b100 j
b100 i
b0 h
b10 g
zf
b10 e
b100 d
zc
b0 b
1a
b100 `
b100 _
b0 ^
b0 ]
b100 \
b100 [
b1001 Z
b10 Y
1X
b0 W
b0 V
b1001 U
b1000 T
0S
b1001 R
b0 Q
b1001 P
b11110000 O
b11110000 N
b100011 M
zL
b10001101000010010000000000000100 K
b11000000000000 J
0I
b11000000000100 H
b1001000000000000010000 G
b11000000000100 F
b0 E
b1001000000000000010000 D
b0 C
b1000010010000000000000100 B
0A
b11000000000100 @
b11000000010100 ?
b11000000000100 >
b11000000010100 =
b10000 <
b11000000000100 ;
b11000000000100 :
b11000000000000 9
b11000000000000 8
b11000000000000 7
b11000000000100 6
05
b1001 4
b10 3
b1001000000000000010000 2
01
b0 0
b0 /
b11000000000100 .
b11000000000000 -
b11000000000100 ,
b100 +
b10001101000010010000000000000100 *
b100 )
b10 (
b11110000 '
1&
b11000000000100 %
b10 $
b100 #
b11000000010100 "
1!
$end
#1
b11000000000100 7
#10
0!
0&
#20
b1 3
b1 Y
b1 t
b1 (
b1 p
b1 s
b11000000001000 ,
b11000000001000 6
b11000000001000 H
1l
15
b0 k
b0 #
b0 j
b0 m
b0 r
b11000000001000 %
b11000000001000 @
b11000000001000 F
b1010 4
b1010 R
b1010 Z
b0 +
b0 `
b0 i
b1010000000000000000000 2
b1010000000000000000000 D
b1010000000000000000000 G
b11000000001000 .
b11000000001000 :
b11000000001000 ;
b11000000001000 >
b1010 U
b1010 P
b0 d
b0 [
b0 <
b11000000001000 "
b11000000001000 =
b11000000001000 ?
b0 )
b0 \
b0 _
b1000010100000000000000000 B
b11000000000100 8
b10001101000010100000000000000000 *
b10001101000010100000000000000000 K
b11000000000100 -
b11000000000100 9
b11000000000100 J
1!
1&
#21
b11000000001000 7
#30
0!
0&
#40
b1011 4
b1011 R
b1011 Z
0u
0n
b10 b
0a
1S
b100100010 O
b100100010 '
b100100010 N
b1 0
b1 W
b1 ^
b1 q
b1 3
b1 Y
b1 t
b0 (
b0 p
b0 s
b11000000001100 ,
b11000000001100 6
b11000000001100 H
0l
05
b1 k
b1 #
b1 j
b1 m
b1 r
b11000000001100 %
b11000000001100 @
b11000000001100 F
b1 +
b1 `
b1 i
b1101010010110000010000000 2
b1101010010110000010000000 D
b1101010010110000010000000 G
b11000000001100 .
b11000000001100 :
b11000000001100 ;
b11000000001100 >
b0 M
b1011 T
b1011 Q
b100000 d
b101100000100000 [
b10110000010000000 <
b11001000010001100 "
b11001000010001100 =
b11001000010001100 ?
b101100000100000 )
b101100000100000 \
b101100000100000 _
b1011010100101100000100000 B
b11000000001000 8
b1011010100101100000100000 *
b1011010100101100000100000 K
b11000000001000 -
b11000000001000 9
b11000000001000 J
1!
1&
#41
b11000000001100 7
#50
0!
0&
#60
b0 e
b0 $
b0 g
b1 /
b1 V
b1 h
b0 3
b0 Y
b0 t
b11000000010000 ,
b11000000010000 6
b11000000010000 H
1l
15
b0 k
b0 #
b0 j
b0 m
b0 r
b11000000010000 %
b11000000010000 @
b11000000010000 F
b0 +
b0 `
b0 i
b1100 4
b1100 R
b1100 Z
b1101000011000000010010000 2
b1101000011000000010010000 D
b1101000011000000010010000 G
b11000000010000 .
b11000000010000 :
b11000000010000 ;
b11000000010000 >
b1000 U
b0 0
b0 W
b0 ^
b0 q
b1000 P
b1100 Q
b100100 d
b110000000100100 [
b11000000010010000 <
b11011000010100000 "
b11011000010100000 =
b11011000010100000 ?
b110000000100100 )
b110000000100100 \
b110000000100100 _
b1011010000110000000100100 B
b11000000001100 8
b1011010000110000000100100 *
b1011010000110000000100100 K
b11000000001100 -
b11000000001100 9
b11000000001100 J
1!
1&
#61
b11000000010000 7
#70
0!
0&
#80
b10 3
b10 Y
b10 t
0l
05
b10 k
b10 #
b10 j
b10 m
b10 r
b1 e
b1 $
b1 g
b11000000010100 ,
b11000000010100 6
b11000000010100 H
b11000000010100 %
b11000000010100 @
b11000000010100 F
b1101 4
b1101 R
b1101 Z
b101000011010000010010100 2
b101000011010000010010100 D
b101000011010000010010100 G
b11000000010100 .
b11000000010100 :
b11000000010100 ;
b11000000010100 >
b1001 T
b10 /
b10 V
b10 h
b1101 Q
b100101 d
b110100000100101 [
b11010000010010100 <
b11101000010101000 "
b11101000010101000 =
b11101000010101000 ?
b110100000100101 )
b110100000100101 \
b110100000100101 _
b1001010000110100000100101 B
b11000000010000 8
b1001010000110100000100101 *
b1001010000110100000100101 K
b11000000010000 -
b11000000010000 9
b11000000010000 J
1!
1&
#81
b11000000010100 7
#90
0!
0&
#100
b110 e
b110 $
b110 g
b11000000011000 ,
b11000000011000 6
b11000000011000 H
b0 3
b0 Y
b0 t
b11000000011000 %
b11000000011000 @
b11000000011000 F
b10 +
b10 `
b10 i
1l
15
b0 k
b0 #
b0 j
b0 m
b0 r
b10101001011010000010001000 2
b10101001011010000010001000 D
b10101001011010000010001000 G
b11000000011000 .
b11000000011000 :
b11000000011000 ;
b11000000011000 >
b1001 U
b10 0
b10 W
b10 ^
b10 q
b1101 T
b10 /
b10 V
b10 h
b1001 P
b100010 d
b110100000100010 [
b11010000010001000 <
b11101000010100000 "
b11101000010100000 =
b11101000010100000 ?
b110100000100010 )
b110100000100010 \
b110100000100010 _
b1101010010110100000100010 B
b11000000010100 8
b1101010010110100000100010 *
b1101010010110100000100010 K
b11000000010100 -
b11000000010100 9
b11000000010100 J
1!
1&
#101
b11000000011000 7
#110
0!
0&
#120
b111 e
b111 $
b111 g
b11000000011100 ,
b11000000011100 6
b11000000011100 H
b1 3
b1 Y
b1 t
b11000000011100 %
b11000000011100 @
b11000000011100 F
0l
05
b1 k
b1 #
b1 j
b1 m
b1 r
b1001001011010000010101000 2
b1001001011010000010101000 D
b1001001011010000010101000 G
b11000000011100 .
b11000000011100 :
b11000000011100 ;
b11000000011100 >
b1010 T
b1 /
b1 V
b1 h
b101010 d
b110100000101010 [
b11010000010101000 <
b11101000011000100 "
b11101000011000100 =
b11101000011000100 ?
b110100000101010 )
b110100000101010 \
b110100000101010 _
b1010010010110100000101010 B
b11000000011000 8
b1010010010110100000101010 *
b1010010010110100000101010 K
b11000000011000 -
b11000000011000 9
b11000000011000 J
1!
1&
#121
b11000000011100 7
#130
0!
0&
#140
0A
b11111111111111111111111111111111 3
b11111111111111111111111111111111 Y
b11111111111111111111111111111111 t
b1 b
0X
0S
0l
05
b11111111111111111111111111111111 k
b11111111111111111111111111111111 #
b11111111111111111111111111111111 j
b11111111111111111111111111111111 m
b11111111111111111111111111111111 r
b101 O
b101 '
b101 N
b110 e
b110 $
b110 g
b11000000100000 ,
b11000000100000 6
b11000000100000 H
b11000000100000 %
b11000000100000 @
b11000000100000 F
b1001 4
b1001 R
b1001 Z
b1101001000000000000000100 2
b1101001000000000000000100 D
b1101001000000000000000100 G
b11000000100000 .
b11000000100000 :
b11000000100000 ;
b11000000100000 >
b100 M
b1011 T
b0 Q
b1 d
b1 [
b100 <
b11000000100100 "
b11000000100100 =
b11000000100100 ?
b1 )
b1 \
b1 _
b1011010010000000000000001 B
b11000000011100 8
b10001011010010000000000000001 *
b10001011010010000000000000001 K
b11000000011100 -
b11000000011100 9
b11000000011100 J
1!
1&
#141
b11000000100000 7
#150
0!
0&
#160
b10 e
b10 $
b10 g
b0 b
1I
b1000000000 O
b1000000000 '
b1000000000 N
0A
b11000000001000 ,
b11000000001000 6
b11000000001000 H
1l
15
b0 3
b0 Y
b0 t
b11000000100100 %
b11000000100100 @
b11000000100100 F
b0 +
b0 `
b0 i
b0 k
b0 #
b0 j
b0 m
b0 r
b0 4
b0 R
b0 Z
b11000000001000 2
b11000000001000 D
b11000000001000 G
b11000000100100 .
b11000000100100 :
b11000000100100 ;
b11000000100100 >
b10 M
b0 U
b0 0
b0 W
b0 ^
b0 q
b0 T
b0 /
b0 V
b0 h
b0 P
b1 Q
b10 d
b110000000010 [
b11000000001000 <
b110000000101100 "
b110000000101100 =
b110000000101100 ?
b110000000010 )
b110000000010 \
b110000000010 _
b110000000010 B
b11000000100000 8
b1000000000000000110000000010 *
b1000000000000000110000000010 K
b11000000100000 -
b11000000100000 9
b11000000100000 J
1!
1&
#161
b11000000001000 7
#170
0!
0&
#180
b10 b
1X
1S
0I
b100100010 O
b100100010 '
b100100010 N
b10 3
b10 Y
b10 t
b11000000001100 ,
b11000000001100 6
b11000000001100 H
b11000000001100 %
b11000000001100 @
b11000000001100 F
b1 +
b1 `
b1 i
0l
05
b10 k
b10 #
b10 j
b10 m
b10 r
b1011 4
b1011 R
b1011 Z
b1101010010110000010000000 2
b1101010010110000010000000 D
b1101010010110000010000000 G
b11000000001100 .
b11000000001100 :
b11000000001100 ;
b11000000001100 >
b0 M
b1010 U
b1 0
b1 W
b1 ^
b1 q
b1011 T
b1 /
b1 V
b1 h
b1010 P
b1011 Q
b100000 d
b101100000100000 [
b10110000010000000 <
b11001000010001100 "
b11001000010001100 =
b11001000010001100 ?
b101100000100000 )
b101100000100000 \
b101100000100000 _
b1011010100101100000100000 B
b11000000001000 8
b1011010100101100000100000 *
b1011010100101100000100000 K
b11000000001000 -
b11000000001000 9
b11000000001000 J
1!
1&
#181
b11000000001100 7
#190
0!
0&
#200
1l
15
b0 e
b0 $
b0 g
b10 /
b10 V
b10 h
b0 3
b0 Y
b0 t
b11000000010000 ,
b11000000010000 6
b11000000010000 H
b0 k
b0 #
b0 j
b0 m
b0 r
b11000000010000 %
b11000000010000 @
b11000000010000 F
b0 +
b0 `
b0 i
b1100 4
b1100 R
b1100 Z
b1101000011000000010010000 2
b1101000011000000010010000 D
b1101000011000000010010000 G
b11000000010000 .
b11000000010000 :
b11000000010000 ;
b11000000010000 >
b1000 U
b0 0
b0 W
b0 ^
b0 q
b1000 P
b1100 Q
b100100 d
b110000000100100 [
b11000000010010000 <
b11011000010100000 "
b11011000010100000 =
b11011000010100000 ?
b110000000100100 )
b110000000100100 \
b110000000100100 _
b1011010000110000000100100 B
b11000000001100 8
b1011010000110000000100100 *
b1011010000110000000100100 K
b11000000001100 -
b11000000001100 9
b11000000001100 J
1!
1&
#201
b11000000010000 7
#210
0!
0&
#220
b10 3
b10 Y
b10 t
0l
05
b10 k
b10 #
b10 j
b10 m
b10 r
b1 e
b1 $
b1 g
b11000000010100 ,
b11000000010100 6
b11000000010100 H
b11000000010100 %
b11000000010100 @
b11000000010100 F
b1101 4
b1101 R
b1101 Z
b101000011010000010010100 2
b101000011010000010010100 D
b101000011010000010010100 G
b11000000010100 .
b11000000010100 :
b11000000010100 ;
b11000000010100 >
b1001 T
b1101 Q
b100101 d
b110100000100101 [
b11010000010010100 <
b11101000010101000 "
b11101000010101000 =
b11101000010101000 ?
b110100000100101 )
b110100000100101 \
b110100000100101 _
b1001010000110100000100101 B
b11000000010000 8
b1001010000110100000100101 *
b1001010000110100000100101 K
b11000000010000 -
b11000000010000 9
b11000000010000 J
1!
1&
#221
b11000000010100 7
#230
0!
0&
#240
1l
15
b110 e
b110 $
b110 g
b11000000011000 ,
b11000000011000 6
b11000000011000 H
b0 3
b0 Y
b0 t
b11000000011000 %
b11000000011000 @
b11000000011000 F
b10 +
b10 `
b10 i
b0 k
b0 #
b0 j
b0 m
b0 r
b10101001011010000010001000 2
b10101001011010000010001000 D
b10101001011010000010001000 G
b11000000011000 .
b11000000011000 :
b11000000011000 ;
b11000000011000 >
b1001 U
b10 0
b10 W
b10 ^
b10 q
b1101 T
b10 /
b10 V
b10 h
b1001 P
b100010 d
b110100000100010 [
b11010000010001000 <
b11101000010100000 "
b11101000010100000 =
b11101000010100000 ?
b110100000100010 )
b110100000100010 \
b110100000100010 _
b1101010010110100000100010 B
b11000000010100 8
b1101010010110100000100010 *
b1101010010110100000100010 K
b11000000010100 -
b11000000010100 9
b11000000010100 J
1!
1&
#241
b11000000011000 7
#250
0!
0&
#260
b111 e
b111 $
b111 g
b11000000011100 ,
b11000000011100 6
b11000000011100 H
b1 3
b1 Y
b1 t
b11000000011100 %
b11000000011100 @
b11000000011100 F
0l
05
b1 k
b1 #
b1 j
b1 m
b1 r
b1001001011010000010101000 2
b1001001011010000010101000 D
b1001001011010000010101000 G
b11000000011100 .
b11000000011100 :
b11000000011100 ;
b11000000011100 >
b1010 T
b1 /
b1 V
b1 h
b101010 d
b110100000101010 [
b11010000010101000 <
b11101000011000100 "
b11101000011000100 =
b11101000011000100 ?
b110100000101010 )
b110100000101010 \
b110100000101010 _
b1010010010110100000101010 B
b11000000011000 8
b1010010010110100000101010 *
b1010010010110100000101010 K
b11000000011000 -
b11000000011000 9
b11000000011000 J
1!
1&
#261
b11000000011100 7
#270
0!
0&
#280
1A
b1 b
0X
0S
b101 O
b101 '
b101 N
b110 e
b110 $
b110 g
b11000000100100 ,
b11000000100100 6
b11000000100100 H
b0 3
b0 Y
b0 t
b11000000100100 %
b11000000100100 @
b11000000100100 F
1l
15
b0 k
b0 #
b0 j
b0 m
b0 r
b1001 4
b1001 R
b1001 Z
b1101001000000000000000100 2
b1101001000000000000000100 D
b1101001000000000000000100 G
b11000000100000 .
b11000000100000 :
b11000000100000 ;
b11000000100000 >
b100 M
b1011 T
b10 /
b10 V
b10 h
b0 Q
b1 d
b1 [
b100 <
b11000000100100 "
b11000000100100 =
b11000000100100 ?
b1 )
b1 \
b1 _
b1011010010000000000000001 B
b11000000011100 8
b10001011010010000000000000001 *
b10001011010010000000000000001 K
b11000000011100 -
b11000000011100 9
b11000000011100 J
1!
1&
#281
b11000000100100 7
#290
0!
0&
#300
b10 e
b10 $
b10 g
b1000 +
b1000 `
b1000 i
1o
b0 b
1a
b10001000 O
b10001000 '
b10001000 N
0A
b1000 3
b1000 Y
b1000 t
b11000000101000 ,
b11000000101000 6
b11000000101000 H
0l
05
b1000 k
b1000 #
b1000 j
b1000 m
b1000 r
b11000000101000 %
b11000000101000 @
b11000000101000 F
b1001000000000000100000 2
b1001000000000000100000 D
b1001000000000000100000 G
b11000000101000 .
b11000000101000 :
b11000000101000 ;
b11000000101000 >
b101011 M
b1000 T
b0 /
b0 V
b0 h
b1000 d
b1000 [
b100000 <
b11000001001000 "
b11000001001000 =
b11000001001000 ?
b1000 )
b1000 \
b1000 _
b1000010010000000000001000 B
b11000000100100 8
b10101101000010010000000000001000 *
b10101101000010010000000000001000 K
b11000000100100 -
b11000000100100 9
b11000000100100 J
1!
1&
#301
b11000000101000 7
#310
0!
0&
#320
b10 3
b10 Y
b10 t
b10 (
b10 p
b10 s
1u
0o
1n
1X
b11110000 O
b11110000 '
b11110000 N
b11000000101100 ,
b11000000101100 6
b11000000101100 H
b11000000101100 %
b11000000101100 @
b11000000101100 F
b1110 4
b1110 R
b1110 Z
b1110000000000000100000 2
b1110000000000000100000 D
b1110000000000000100000 G
b11000001001100 "
b11000001001100 =
b11000001001100 ?
b11000000101100 .
b11000000101100 :
b11000000101100 ;
b11000000101100 >
b100011 M
b1110 U
b0 0
b0 W
b0 ^
b0 q
b1110 P
b1000011100000000000001000 B
b11000000101000 8
b10001101000011100000000000001000 *
b10001101000011100000000000001000 K
b11000000101000 -
b11000000101000 9
b11000000101000 J
1!
1&
#321
b11000000101100 7
#330
0!
0&
#340
b1111 4
b1111 R
b1111 Z
0u
0n
b10 b
0a
1S
b100100010 O
b100100010 '
b100100010 N
b10 /
b10 V
b10 h
b10 0
b10 W
b10 ^
b10 q
b100 3
b100 Y
b100 t
b0 (
b0 p
b0 s
b11000000110000 ,
b11000000110000 6
b11000000110000 H
b100 k
b100 #
b100 j
b100 m
b100 r
b11000000110000 %
b11000000110000 @
b11000000110000 F
b10 +
b10 `
b10 i
b11001110011110000010000000 2
b11001110011110000010000000 D
b11001110011110000010000000 G
b11000000110000 .
b11000000110000 :
b11000000110000 ;
b11000000110000 >
b0 M
b1110 T
b1111 Q
b100000 d
b111100000100000 [
b11110000010000000 <
b100001000010110000 "
b100001000010110000 =
b100001000010110000 ?
b111100000100000 )
b111100000100000 \
b111100000100000 _
b1110011100111100000100000 B
b11000000101100 8
b1110011100111100000100000 *
b1110011100111100000100000 K
b11000000101100 -
b11000000101100 9
b11000000101100 J
1!
1&
#341
b11000000110000 7
#350
0!
0&
#360
b0 b
0X
0S
b0 O
b0 '
b0 N
b10 e
b10 $
b10 g
b11000000110100 ,
b11000000110100 6
b11000000110100 H
bx 3
bx Y
bx t
bx ]
b11000000110100 %
b11000000110100 @
b11000000110100 F
bx +
bx `
bx i
xl
x5
bx k
bx #
bx j
bx m
bx r
bx 4
bx R
bx Z
b0xxxxxxxxxxxxxxxxxxxxxxxx00 2
b0xxxxxxxxxxxxxxxxxxxxxxxx00 D
b0xxxxxxxxxxxxxxxxxxxxxxxx00 G
b11000000110100 .
b11000000110100 :
b11000000110100 ;
b11000000110100 >
bx M
bx U
bx 0
bx W
bx ^
bx q
bx T
bx /
bx V
bx h
bx P
bx Q
bx d
bx [
bx <
bx "
bx =
bx ?
bx )
bx \
bx _
bx B
b11000000110000 8
bx *
bx K
b11000000110000 -
b11000000110000 9
b11000000110000 J
1!
1&
#361
b11000000110100 7
#370
0!
0&
#380
b11000000111000 ,
b11000000111000 6
b11000000111000 H
b11000000111000 %
b11000000111000 @
b11000000111000 F
b11000000111000 .
b11000000111000 :
b11000000111000 ;
b11000000111000 >
b11000000110100 8
b11000000110100 -
b11000000110100 9
b11000000110100 J
1!
1&
#381
b11000000111000 7
#390
0!
0&
#400
b11000000111100 ,
b11000000111100 6
b11000000111100 H
b11000000111100 %
b11000000111100 @
b11000000111100 F
b11000000111100 .
b11000000111100 :
b11000000111100 ;
b11000000111100 >
b11000000111000 8
b11000000111000 -
b11000000111000 9
b11000000111000 J
1!
1&
#401
b11000000111100 7
#410
0!
0&
#420
b11000001000000 ,
b11000001000000 6
b11000001000000 H
b11000001000000 %
b11000001000000 @
b11000001000000 F
b11000001000000 .
b11000001000000 :
b11000001000000 ;
b11000001000000 >
b11000000111100 8
b11000000111100 -
b11000000111100 9
b11000000111100 J
1!
1&
#421
b11000001000000 7
#430
0!
0&
#440
b11000001000100 ,
b11000001000100 6
b11000001000100 H
b11000001000100 %
b11000001000100 @
b11000001000100 F
b11000001000100 .
b11000001000100 :
b11000001000100 ;
b11000001000100 >
b11000001000000 8
b11000001000000 -
b11000001000000 9
b11000001000000 J
1!
1&
#441
b11000001000100 7
#450
0!
0&
#460
b11000001001000 ,
b11000001001000 6
b11000001001000 H
b11000001001000 %
b11000001001000 @
b11000001001000 F
b11000001001000 .
b11000001001000 :
b11000001001000 ;
b11000001001000 >
b11000001000100 8
b11000001000100 -
b11000001000100 9
b11000001000100 J
1!
1&
#461
b11000001001000 7
#470
0!
0&
#480
b11000001001100 ,
b11000001001100 6
b11000001001100 H
b11000001001100 %
b11000001001100 @
b11000001001100 F
b11000001001100 .
b11000001001100 :
b11000001001100 ;
b11000001001100 >
b11000001001000 8
b11000001001000 -
b11000001001000 9
b11000001001000 J
1!
1&
#481
b11000001001100 7
#490
0!
0&
#500
b11000001010000 ,
b11000001010000 6
b11000001010000 H
b11000001010000 %
b11000001010000 @
b11000001010000 F
b11000001010000 .
b11000001010000 :
b11000001010000 ;
b11000001010000 >
b11000001001100 8
b11000001001100 -
b11000001001100 9
b11000001001100 J
1!
1&
