test2.vcd
$date
	Wed Jun 01 21:34:51 2016
$end
$version
	Icarus Verilog
$end
$timescale
	1s
$end
$scope module SL2Add $end
$var wire 26 ! in26 [25:0] $end
$var wire 4 " in4 [3:0] $end
$var wire 32 # out32 [31:0] $end
$var reg 2 $ temp [1:0] $end
$upscope $end
$scope module muxtwo_4 $end
$var wire 5 % in1 [4:0] $end
$var wire 5 & in2 [4:0] $end
$var wire 5 ' out [4:0] $end
$var wire 1 ( sl $end
$upscope $end
$scope module testBench $end
$var reg 1 ) clk $end
$var reg 1 * rst $end
$scope module cpu $end
$var wire 32 + addBranchOut [31:0] $end
$var wire 32 , aluResult [31:0] $end
$var wire 4 - aluctrl [3:0] $end
$var wire 1 . clk $end
$var wire 10 / ctrlUnitOutCode [9:0] $end
$var wire 32 0 dmOutData [31:0] $end
$var wire 107 1 exmemOut [106:0] $end
$var wire 32 2 extSign32 [31:0] $end
$var wire 147 3 idexOut [146:0] $end
$var wire 64 4 ifidOut [63:0] $end
$var wire 32 5 imOutData [31:0] $end
$var wire 71 6 memwbOut [70:0] $end
$var wire 32 7 mw32Out [31:0] $end
$var wire 32 8 mw32_memOut [31:0] $end
$var wire 5 9 mw5Out [4:0] $end
$var wire 32 : pcInputAddr [31:0] $end
$var wire 32 ; pcOutAddr [31:0] $end
$var wire 32 < pcPlus4 [31:0] $end
$var wire 32 = reg1Data [31:0] $end
$var wire 32 > reg2Data [31:0] $end
$var wire 1 ? rst $end
$var wire 1 @ zero $end
$scope module mw32_pc $end
$var wire 32 A in1 [31:0] $end
$var wire 32 B in2 [31:0] $end
$var wire 32 C out [31:0] $end
$var wire 1 D sl $end
$upscope $end
$scope module pc $end
$var wire 1 . clk $end
$var wire 32 E inAddr [31:0] $end
$var wire 1 ? rst $end
$var reg 32 F outAddr [31:0] $end
$upscope $end
$scope module add4 $end
$var wire 32 G inAddr [31:0] $end
$var wire 32 H outAddr [31:0] $end
$upscope $end
$scope module im $end
$var wire 32 I inAddr [31:0] $end
$var wire 32 J outContent [31:0] $end
$upscope $end
$scope module ifid $end
$var wire 32 K addr4 [31:0] $end
$var wire 1 . clk $end
$var wire 32 L ins [31:0] $end
$var wire 1 ? rst $end
$var reg 64 M out [63:0] $end
$upscope $end
$scope module controlunit $end
$var wire 1 N clk $end
$var wire 6 O inCode [5:0] $end
$var wire 10 P outCode [9:0] $end
$var reg 10 Q result [9:0] $end
$upscope $end
$scope module signext $end
$var wire 16 R in1 [15:0] $end
$var wire 32 S out [31:0] $end
$var wire 16 T temp [15:0] $end
$upscope $end
$scope module regHeap $end
$var wire 1 . clk $end
$var wire 5 U readReg1 [4:0] $end
$var wire 5 V readReg2 [4:0] $end
$var wire 32 W reg1Data [31:0] $end
$var wire 32 X reg2Data [31:0] $end
$var wire 1 Y regWrite $end
$var wire 32 Z writeData [31:0] $end
$var wire 5 [ writeReg [4:0] $end
$upscope $end
$scope module idex $end
$var wire 32 \ add4 [31:0] $end
$var wire 1 . clk $end
$var wire 4 ] ex [3:0] $end
$var wire 3 ^ m [2:0] $end
$var wire 5 _ rd [4:0] $end
$var wire 32 ` readData1 [31:0] $end
$var wire 32 a readData2 [31:0] $end
$var wire 1 ? rst $end
$var wire 5 b rt [4:0] $end
$var wire 32 c signExt [31:0] $end
$var wire 2 d wb [1:0] $end
$var reg 147 e out [146:0] $end
$upscope $end
$scope module addBranch $end
$var wire 32 f inAddr_add [31:0] $end
$var wire 32 g inAddr_sl2 [31:0] $end
$var wire 32 h outAddr [31:0] $end
$upscope $end
$scope module mw32 $end
$var wire 32 i in1 [31:0] $end
$var wire 32 j in2 [31:0] $end
$var wire 32 k out [31:0] $end
$var wire 1 l sl $end
$upscope $end
$scope module aluControl $end
$var wire 2 m aluop [1:0] $end
$var wire 1 n clk $end
$var wire 6 o func [5:0] $end
$var reg 4 p aluctrl [3:0] $end
$upscope $end
$scope module alu $end
$var wire 1 q clk $end
$var wire 4 r ctrl [3:0] $end
$var wire 32 s in1 [31:0] $end
$var wire 32 t in2 [31:0] $end
$var wire 32 u out [31:0] $end
$var reg 32 v result [31:0] $end
$var reg 1 w zero $end
$upscope $end
$scope module mw5 $end
$var wire 5 x in1 [4:0] $end
$var wire 5 y in2 [4:0] $end
$var wire 5 z out [4:0] $end
$var wire 1 { sl $end
$upscope $end
$scope module exmem $end
$var wire 32 | addBranch [31:0] $end
$var wire 32 } aluResult [31:0] $end
$var wire 1 @ aluZero $end
$var wire 1 . clk $end
$var wire 3 ~ m [2:0] $end
$var wire 5 !" mw5Out [4:0] $end
$var wire 32 "" readData2 [31:0] $end
$var wire 1 ? rst $end
$var wire 2 #" wb [1:0] $end
$var reg 107 $" out [106:0] $end
$upscope $end
$scope module dm $end
$var wire 1 . clk $end
$var wire 32 %" inAddr [31:0] $end
$var wire 1 &" memRead $end
$var wire 1 '" memWrite $end
$var wire 32 (" outData [31:0] $end
$var wire 32 )" writeData [31:0] $end
$upscope $end
$scope module memwb $end
$var wire 32 *" aluResult [31:0] $end
$var wire 1 . clk $end
$var wire 32 +" readData [31:0] $end
$var wire 1 ? rst $end
$var wire 5 ," rtd [4:0] $end
$var wire 2 -" wb [1:0] $end
$var reg 71 ." out [70:0] $end
$upscope $end
$scope module mw32_mem $end
$var wire 32 /" in1 [31:0] $end
$var wire 32 0" in2 [31:0] $end
$var wire 32 1" out [31:0] $end
$var wire 1 2" sl $end
$upscope $end
$upscope $end
$upscope $end
$enddefinitions $end
#0
$dumpvars
02"
b0 1"
b0 0"
b0 /"
b0 ."
b0 -"
b0 ,"
b0 +"
b0 *"
b0 )"
b0 ("
0'"
0&"
b0 %"
b0 $"
b0 #"
b0 ""
b0 !"
b0 ~
b0 }
b0 |
0{
b0 z
b0 y
b0 x
1w
b0 v
b0 u
b0 t
b0 s
b10 r
zq
b10 p
b0 o
zn
b0 m
0l
b0 k
b0 j
b0 i
b0 h
b0 g
b0 f
b0 e
b1 d
b0 c
b0 b
b0 a
b0 `
b0 _
b0 ^
b110 ]
b0 \
b0 [
b0 Z
0Y
b0 X
b0 W
b0 V
b0 U
b0 T
b0 S
b0 R
b100100010 Q
b100100010 P
b0 O
zN
b0 M
b10001101000010010000000000000100 L
b11000000000100 K
b10001101000010010000000000000100 J
b11000000000000 I
b11000000000100 H
b11000000000000 G
b11000000000000 F
b11000000000100 E
0D
b11000000000100 C
b0 B
b11000000000100 A
1@
1?
b0 >
b0 =
b11000000000100 <
b11000000000000 ;
b11000000000100 :
b0 9
b0 8
b0 7
b0 6
b10001101000010010000000000000100 5
b0 4
b0 3
b0 2
b0 1
b0 0
b100100010 /
1.
b10 -
b0 ,
b0 +
1*
1)
z(
bz '
bz &
bz %
b0 $
b0zzzzzzzzzzzzzzzzzzzzzzzzzzzz00 #
bz "
bz !
$end
#10
0)
0.
#20
b11000000001000 :
b11000000001000 C
b11000000001000 E
b1000 ]
b10 ^
b11 d
b11000000001000 <
b11000000001000 A
b11000000001000 H
b11000000001000 K
b11110000 Q
b11110000 /
b11110000 P
b0 p
b0 -
b0 r
b11000000000100 F
b10001101000010100000000000000000 5
b10001101000010100000000000000000 J
b10001101000010100000000000000000 L
b11000000000100 ;
b11000000000100 G
b11000000000100 I
b1001 b
b11000000000100 \
b1001 V
b1000 U
b100 R
b100 2
b100 S
b100 c
b100011 O
b1 #"
1{
b10 m
b1100000000010010001101000010010000000000000100 M
b1100000000010010001101000010010000000000000100 4
b10000110000000000000000000000000000000000000000000000000000000000000000000000000000000000000000000000000000000000000000000000000000000000000000000 e
b10000110000000000000000000000000000000000000000000000000000000000000000000000000000000000000000000000000000000000000000000000000000000000000000000 3
b1000000000000000000000000000000000000000000000000000000000000000000000 $"
b1000000000000000000000000000000000000000000000000000000000000000000000 1
1)
1.
0*
0?
#30
0)
0.
#40
0w
0@
b100 v
b100 ,
b100 u
b100 }
b10 p
b10 -
b10 r
b1001 9
b1001 z
b1001 !"
b100 7
b100 k
b100 t
b11000000001100 :
b11000000001100 C
b11000000001100 E
b1010 b
b11000000001000 \
b1010 V
b0 R
b0 2
b0 S
b0 c
b10 ~
b11 #"
0{
b1001 x
b0 m
b100 o
1l
b100 j
b10000 g
b11000000000100 f
b11000000010100 +
b11000000010100 h
b11000000010100 |
b1 -"
b11000000001100 <
b11000000001100 A
b11000000001100 H
b11000000001100 K
b1100000000100010001101000010100000000000000000 M
b1100000000100010001101000010100000000000000000 4
b110101000000000000000000000110000000001000000000000000000000000000000000000000000000000000000000000000000000000000000000000000000000001000100100000 e
b110101000000000000000000000110000000001000000000000000000000000000000000000000000000000000000000000000000000000000000000000000000000001000100100000 3
b1000000000000000000000000000000000001000000000000000000000000000000000000000000000000000000000000000000000 $"
b1000000000000000000000000000000000001000000000000000000000000000000000000000000000000000000000000000000000 1
b11000000001000 F
b1100011010101100000100000 5
b1100011010101100000100000 J
b1100011010101100000100000 L
b11000000001000 ;
b11000000001000 G
b11000000001000 I
1)
1.
#50
0)
0.
#60
b110 ]
b0 ^
b1 d
b100100010 Q
b100100010 /
b100100010 P
1w
1@
b0 v
b0 ,
b0 u
b0 }
b10 0
b10 ("
b10 +"
b1010 9
b1010 z
b1010 !"
b0 7
b0 k
b0 t
b11000000010000 :
b11000000010000 C
b11000000010000 E
1Y
b1001 ,"
b100 *"
b11 -"
1&"
b100 %"
b11000000010100 B
b1010 x
b0 o
b0 j
b0 g
b11000000001000 f
b11000000001000 +
b11000000001000 h
b11000000001000 |
b1011 _
b1101 b
b11000000001100 \
b1101 V
b1100 U
b101100000100000 R
b101100000100000 2
b101100000100000 S
b101100000100000 c
b0 O
b11000000010000 <
b11000000010000 A
b11000000010000 H
b11000000010000 K
b1000000000000000000000000000000000000000000000000000000000000000000000 ."
b1000000000000000000000000000000000000000000000000000000000000000000000 6
b11010000000000000000000110000000101000000000000000000000000000000001000000000000000000000000000000000001001 $"
b11010000000000000000000110000000101000000000000000000000000000000001000000000000000000000000000000000001001 1
b110101000000000000000000000110000000010000000000000000000000000000000000000000000000000000000000000000000000000000000000000000000000000000101000000 e
b110101000000000000000000000110000000010000000000000000000000000000000000000000000000000000000000000000000000000000000000000000000000000000101000000 3
b1100000000110000000001100011010101100000100000 M
b1100000000110000000001100011010101100000100000 4
b11000000001100 F
b11000000001100 ;
b11000000001100 G
b11000000001100 I
1)
1.
#70
0)
0.
#80
b1011 9
b1011 z
b1011 !"
b1 0
b1 ("
b1 +"
b10 8
b10 Z
b10 1"
b11000000010100 :
b11000000010100 C
b11000000010100 E
b11000000010000 \
b0 ~
b1 #"
1{
b1011 y
b1101 x
b10 m
b100000 o
0l
b101100000100000 j
b10110000010000000 g
b11000000001100 f
b11001000010001100 +
b11001000010001100 h
b11001000010001100 |
b1010 ,"
b0 *"
b0 %"
b11000000001000 B
12"
b10 0"
b100 /"
b1001 [
b11000000010100 <
b11000000010100 A
b11000000010100 H
b11000000010100 K
b1100000001000000000001100011010101100000100000 M
b1100000001000000000001100011010101100000100000 4
b10000110000000000000000000110000000011000000000000000000000000000000000000000000000000000000000000000000000000000000000001011000001000000110101011 e
b10000110000000000000000000110000000011000000000000000000000000000000000000000000000000000000000000000000000000000000000001011000001000000110101011 3
b11010000000000000000000110000000010001000000000000000000000000000000000000000000000000000000000000000001010 $"
b11010000000000000000000110000000010001000000000000000000000000000000000000000000000000000000000000000001010 1
b11000000000000000000000000000000100000000000000000000000000000010001001 ."
b11000000000000000000000000000000100000000000000000000000000000010001001 6
b11000000010000 F
b1110011110110100000100000 5
b1110011110110100000100000 J
b1110011110110100000100000 L
b11000000010000 ;
b11000000010000 G
b11000000010000 I
1)
1.
#90
0)
0.
#100
b1 8
b1 Z
b1 1"
b0 0
b0 ("
b0 +"
b11000000011000 :
b11000000011000 C
b11000000011000 E
b1 0"
b0 /"
b1010 [
b1011 ,"
b1 -"
0&"
b11001000010001100 B
b11000000010000 f
b11001000010010000 +
b11001000010010000 h
b11001000010010000 |
b1101 _
b1111 b
b11000000010100 \
b1111 V
b1110 U
b110100000100000 R
b110100000100000 2
b110100000100000 S
b110100000100000 c
b11000000011000 <
b11000000011000 A
b11000000011000 H
b11000000011000 K
b11000000000000000000000000000000010000000000000000000000000000000001010 ."
b11000000000000000000000000000000010000000000000000000000000000000001010 6
b1000000000000000000110010000100011001000000000000000000000000000000000000000000000000000000000000000001011 $"
b1000000000000000000110010000100011001000000000000000000000000000000000000000000000000000000000000000001011 1
b10000110000000000000000000110000000100000000000000000000000000000000000000000000000000000000000000000000000000000000000001011000001000000110101011 e
b10000110000000000000000000110000000100000000000000000000000000000000000000000000000000000000000000000000000000000000000001011000001000000110101011 3
b1100000001010000000001110011110110100000100000 M
b1100000001010000000001110011110110100000100000 4
b11000000010100 F
b1111011101100000000100000 5
b1111011101100000000100000 J
b1111011101100000000100000 L
b11000000010100 ;
b11000000010100 G
b11000000010100 I
1)
1.
#110
0)
0.
#120
b1111111111111111 T
b1101 9
b1101 z
b1101 !"
b0 8
b0 Z
b0 1"
b11000000011100 :
b11000000011100 C
b11000000011100 E
b11000 _
b1110 b
b11000000011000 \
b1110 V
b1111 U
b1100000000100000 R
b11111111111111111100000000100000 2
b11111111111111111100000000100000 S
b11111111111111111100000000100000 c
b1101 y
b1111 x
b110100000100000 j
b11010000010000000 g
b11000000010100 f
b11101000010010100 +
b11101000010010100 h
b11101000010010100 |
b11001000010010000 B
02"
b0 0"
b1011 [
b11000000011100 <
b11000000011100 A
b11000000011100 H
b11000000011100 K
b1100000001100000000001111011101100000000100000 M
b1100000001100000000001111011101100000000100000 4
b10000110000000000000000000110000000101000000000000000000000000000000000000000000000000000000000000000000000000000000000001101000001000000111101101 e
b10000110000000000000000000110000000101000000000000000000000000000000000000000000000000000000000000000000000000000000000001101000001000000111101101 3
b1000000000000000000110010000100100001000000000000000000000000000000000000000000000000000000000000000001011 $"
b1000000000000000000110010000100100001000000000000000000000000000000000000000000000000000000000000000001011 1
b1000000000000000000000000000000000000000000000000000000000000000001011 ."
b1000000000000000000000000000000000000000000000000000000000000000001011 6
b11000000011000 F
b1001010100101100000100000 5
b1001010100101100000100000 J
b1001010100101100000100000 L
b11000000011000 ;
b11000000011000 G
b11000000011000 I
1)
1.
#130
0)
0.
#140
b0 T
b11000 9
b11000 z
b11000 !"
b11000000100000 :
b11000000100000 C
b11000000100000 E
b1101 ,"
b11101000010010100 B
b11000 y
b1110 x
b11111111111111111100000000100000 j
b11111111111111110000000010000000 g
b11000000011000 f
b11111111111111110011000010011000 +
b11111111111111110011000010011000 h
b11111111111111110011000010011000 |
b1011 _
b1010 b
b11000000011100 \
b1010 V
b1 >
b1 X
b1 a
b1001 U
b10 =
b10 W
b10 `
b101100000100000 R
b101100000100000 2
b101100000100000 S
b101100000100000 c
b11000000100000 <
b11000000100000 A
b11000000100000 H
b11000000100000 K
b1000000000000000000111010000100101001000000000000000000000000000000000000000000000000000000000000000001101 $"
b1000000000000000000111010000100101001000000000000000000000000000000000000000000000000000000000000000001101 1
b10000110000000000000000000110000000110000000000000000000000000000000000000000000000000000000000000000000111111111111111111000000001000000111011000 e
b10000110000000000000000000110000000110000000000000000000000000000000000000000000000000000000000000000000111111111111111111000000001000000111011000 3
b1100000001110000000001001010100101100000100000 M
b1100000001110000000001001010100101100000100000 4
b11000000011100 F
b10101101000010010000000000000101 5
b10101101000010010000000000000101 J
b10101101000010010000000000000101 L
b11000000011100 ;
b11000000011100 G
b11000000011100 I
1)
1.
#150
0)
0.
#160
b1000 ]
b1 ^
b0 d
b10001000 Q
b10001000 /
b10001000 P
b1011 9
b1011 z
b1011 !"
0w
0@
b11 v
b11 ,
b11 u
b11 }
b1 7
b1 k
b1 t
b11000000100100 :
b11000000100100 C
b11000000100100 E
b0 _
b1001 b
b11000000100000 \
b1001 V
b10 >
b10 X
b10 a
b1000 U
b0 =
b0 W
b0 `
b101 R
b101 2
b101 S
b101 c
b101011 O
b1 ""
b1011 y
b1010 x
b10 s
b101100000100000 j
b1 i
b10110000010000000 g
b11000000011100 f
b11001000010011100 +
b11001000010011100 h
b11001000010011100 |
b11000 ,"
b11111111111111110011000010011000 B
b1101 [
b11000000100100 <
b11000000100100 A
b11000000100100 H
b11000000100100 K
b1100000010000010101101000010010000000000000101 M
b1100000010000010101101000010010000000000000101 4
b10000110000000000000000000110000000111000000000000000000000000000000001000000000000000000000000000000001000000000000000001011000001000000101001011 e
b10000110000000000000000000110000000111000000000000000000000000000000001000000000000000000000000000000001000000000000000001011000001000000101001011 3
b1000111111111111111100110000100110001000000000000000000000000000000000000000000000000000000000000000011000 $"
b1000111111111111111100110000100110001000000000000000000000000000000000000000000000000000000000000000011000 1
b1000000000000000000000000000000000000000000000000000000000000000001101 ."
b1000000000000000000000000000000000000000000000000000000000000000001101 6
b11000000100000 F
b10101101000010100000000000000110 5
b10101101000010100000000000000110 J
b10101101000010100000000000000110 L
b11000000100000 ;
b11000000100000 G
b11000000100000 I
1)
1.
#170
0)
0.
#180
b1001 9
b1001 z
b1001 !"
b101 v
b101 ,
b101 u
b101 }
b101 7
b101 k
b101 t
b11000000101000 :
b11000000101000 C
b11000000101000 E
b11000 [
b1011 ,"
b11 *"
b1 )"
b11 %"
b11001000010011100 B
b10 ""
b1 ~
b0 #"
0{
b0 y
b1001 x
b0 s
b0 m
b101 o
1l
b101 j
b10 i
b10100 g
b11000000100000 f
b11000000110100 +
b11000000110100 h
b11000000110100 |
b1010 b
b11000000100100 \
b1010 V
b1 >
b1 X
b1 a
b110 R
b110 2
b110 S
b110 c
b11000000101000 <
b11000000101000 A
b11000000101000 H
b11000000101000 K
b1000000000000000000000000000000000000000000000000000000000000000011000 ."
b1000000000000000000000000000000000000000000000000000000000000000011000 6
b1000000000000000000110010000100111000000000000000000000000000000000110000000000000000000000000000000101011 $"
b1000000000000000000110010000100111000000000000000000000000000000000110000000000000000000000000000000101011 1
b11000000000000000000000110000001000000000000000000000000000000000000000000000000000000000000000000010000000000000000000000000000001010100100000 e
b11000000000000000000000110000001000000000000000000000000000000000000000000000000000000000000000000010000000000000000000000000000001010100100000 3
b1100000010010010101101000010100000000000000110 M
b1100000010010010101101000010100000000000000110 4
b11000000100100 F
b1100011010101100000100000 5
b1100011010101100000100000 J
b1100011010101100000100000 L
b11000000100100 ;
b11000000100100 G
b11000000100100 I
1)
1.
#190
0)
0.
#200
b110 ]
b0 ^
b1 d
b100100010 Q
b100100010 /
b100100010 P
b110 v
b110 ,
b110 u
b110 }
b1010 9
b1010 z
b1010 !"
b110 7
b110 k
b110 t
b11 8
b11 Z
b11 1"
b11000000101100 :
b11000000101100 C
b11000000101100 E
b1011 _
b1101 b
b11000000101000 \
b1101 V
b0 >
b0 X
b0 a
b1100 U
b101100000100000 R
b101100000100000 2
b101100000100000 S
b101100000100000 c
b0 O
b1 ""
b1010 x
b110 o
b110 j
b1 i
b11000 g
b11000000100100 f
b11000000111100 +
b11000000111100 h
b11000000111100 |
b1001 ,"
b101 *"
b0 -"
1'"
b10 )"
b101 %"
b11000000110100 B
b11 /"
b1011 [
b11000000101100 <
b11000000101100 A
b11000000101100 H
b11000000101100 K
b1100000010100000000001100011010101100000100000 M
b1100000010100000000001100011010101100000100000 4
b11000000000000000000000110000001001000000000000000000000000000000000000000000000000000000000000000001000000000000000000000000000001100101000000 e
b11000000000000000000000110000001001000000000000000000000000000000000000000000000000000000000000000001000000000000000000000000000001100101000000 3
b1000000000000000000110000001101000000000000000000000000000000001010000000000000000000000000000001001001 $"
b1000000000000000000110000001101000000000000000000000000000000001010000000000000000000000000000001001001 1
b1000000000000000000000000000000000000000000000000000000000000001101011 ."
b1000000000000000000000000000000000000000000000000000000000000001101011 6
b11000000101000 F
b1110011110110100000100000 5
b1110011110110100000100000 J
b1110011110110100000100000 L
b11000000101000 ;
b11000000101000 G
b11000000101000 I
1)
1.
#210
0)
0.
#220
1w
1@
b0 v
b0 ,
b0 u
b0 }
b101 8
b101 Z
b101 1"
b1011 9
b1011 z
b1011 !"
b0 7
b0 k
b0 t
b11000000110000 :
b11000000110000 C
b11000000110000 E
b101 /"
0Y
b1001 [
b1010 ,"
b110 *"
b1 )"
b110 %"
b11000000111100 B
b0 ""
b0 ~
b1 #"
1{
b1011 y
b1101 x
b10 m
b100000 o
0l
b101100000100000 j
b0 i
b10110000010000000 g
b11000000101000 f
b11001000010101000 +
b11001000010101000 h
b11001000010101000 |
b1101 _
b1111 b
b11000000101100 \
b1111 V
b1110 U
b110100000100000 R
b110100000100000 2
b110100000100000 S
b110100000100000 c
b11000000110000 <
b11000000110000 A
b11000000110000 H
b11000000110000 K
b10101001 ."
b10101001 6
b1000000000000000000110000001111000000000000000000000000000000001100000000000000000000000000000000101010 $"
b1000000000000000000110000001111000000000000000000000000000000001100000000000000000000000000000000101010 1
b10000110000000000000000000110000001010000000000000000000000000000000000000000000000000000000000000000000000000000000000001011000001000000110101011 e
b10000110000000000000000000110000001010000000000000000000000000000000000000000000000000000000000000000000000000000000000001011000001000000110101011 3
b1100000010110000000001110011110110100000100000 M
b1100000010110000000001110011110110100000100000 4
b11000000101100 F
b1111011101100000000100000 5
b1111011101100000000100000 J
b1111011101100000000100000 L
b11000000101100 ;
b11000000101100 G
b11000000101100 I
1)
1.
#230
0)
0.
#240
b1111111111111111 T
b1101 9
b1101 z
b1101 !"
b110 8
b110 Z
b110 1"
b11000000110100 :
b11000000110100 C
b11000000110100 E
b11000 _
b1110 b
b11000000110000 \
b1110 V
b1111 U
b1100000000100000 R
b11111111111111111100000000100000 2
b11111111111111111100000000100000 S
b11111111111111111100000000100000 c
b1101 y
b1111 x
b110100000100000 j
b11010000010000000 g
b11000000101100 f
b11101000010101100 +
b11101000010101100 h
b11101000010101100 |
b1011 ,"
b0 *"
b1 -"
0'"
b0 )"
b0 %"
b11001000010101000 B
b110 /"
b1010 [
b11000000110100 <
b11000000110100 A
b11000000110100 H
b11000000110100 K
b1100000011000000000001111011101100000000100000 M
b1100000011000000000001111011101100000000100000 4
b10000110000000000000000000110000001011000000000000000000000000000000000000000000000000000000000000000000000000000000000001101000001000000111101101 e
b10000110000000000000000000110000001011000000000000000000000000000000000000000000000000000000000000000000000000000000000001101000001000000111101101 3
b1000000000000000000110010000101010001000000000000000000000000000000000000000000000000000000000000000001011 $"
b1000000000000000000110010000101010001000000000000000000000000000000000000000000000000000000000000000001011 1
b11001010 ."
b11001010 6
b11000000110000 F
b10001101000011100000000000000101 5
b10001101000011100000000000000101 J
b10001101000011100000000000000101 L
b11000000110000 ;
b11000000110000 G
b11000000110000 I
1)
1.
#250
0)
0.
#260
b1000 ]
b10 ^
b11 d
b11110000 Q
b11110000 /
b11110000 P
b0 T
b0 8
b0 Z
b0 1"
b11000 9
b11000 z
b11000 !"
b11000000111000 :
b11000000111000 C
b11000000111000 E
b0 /"
1Y
b1011 [
b1101 ,"
b11101000010101100 B
b11000 y
b1110 x
b11111111111111111100000000100000 j
b11111111111111110000000010000000 g
b11000000110000 f
b11111111111111110011000010110000 +
b11111111111111110011000010110000 h
b11111111111111110011000010110000 |
b0 _
b11000000110100 \
b1000 U
b101 R
b101 2
b101 S
b101 c
b100011 O
b11000000111000 <
b11000000111000 A
b11000000111000 H
b11000000111000 K
b1000000000000000000000000000000000000000000000000000000000000000001011 ."
b1000000000000000000000000000000000000000000000000000000000000000001011 6
b1000000000000000000111010000101011001000000000000000000000000000000000000000000000000000000000000000001101 $"
b1000000000000000000111010000101011001000000000000000000000000000000000000000000000000000000000000000001101 1
b10000110000000000000000000110000001100000000000000000000000000000000000000000000000000000000000000000000111111111111111111000000001000000111011000 e
b10000110000000000000000000110000001100000000000000000000000000000000000000000000000000000000000000000000111111111111111111000000001000000111011000 3
b1100000011010010001101000011100000000000000101 M
b1100000011010010001101000011100000000000000101 4
b11000000110100 F
b10001101000011110000000000000110 5
b10001101000011110000000000000110 J
b10001101000011110000000000000110 L
b11000000110100 ;
b11000000110100 G
b11000000110100 I
1)
1.
#270
0)
0.
#280
0w
0@
b101 v
b101 ,
b101 u
b101 }
b1110 9
b1110 z
b1110 !"
b101 7
b101 k
b101 t
b11000000111100 :
b11000000111100 C
b11000000111100 E
b1111 b
b11000000111000 \
b1111 V
b110 R
b110 2
b110 S
b110 c
b10 ~
b11 #"
0{
b0 y
b0 m
b101 o
1l
b101 j
b10100 g
b11000000110100 f
b11000001001000 +
b11000001001000 h
b11000001001000 |
b11000 ,"
b11111111111111110011000010110000 B
b1101 [
b11000000111100 <
b11000000111100 A
b11000000111100 H
b11000000111100 K
b1100000011100010001101000011110000000000000110 M
b1100000011100010001101000011110000000000000110 4
b110101000000000000000000000110000001101000000000000000000000000000000000000000000000000000000000000000000000000000000000000000000000001010111000000 e
b110101000000000000000000000110000001101000000000000000000000000000000000000000000000000000000000000000000000000000000000000000000000001010111000000 3
b1000111111111111111100110000101100001000000000000000000000000000000000000000000000000000000000000000011000 $"
b1000111111111111111100110000101100001000000000000000000000000000000000000000000000000000000000000000011000 1
b1000000000000000000000000000000000000000000000000000000000000000001101 ."
b1000000000000000000000000000000000000000000000000000000000000000001101 6
b11000000111000 F
b1100011010101100000100000 5
b1100011010101100000100000 J
b1100011010101100000100000 L
b11000000111000 ;
b11000000111000 G
b11000000111000 I
1)
1.
#290
0)
0.
#300
b110 ]
b0 ^
b1 d
b100100010 Q
b100100010 /
b100100010 P
b110 v
b110 ,
b110 u
b110 }
b100000010 0
b100000010 ("
b100000010 +"
b1111 9
b1111 z
b1111 !"
b110 7
b110 k
b110 t
b11000001000000 :
b11000001000000 C
b11000001000000 E
b11000 [
b1110 ,"
b101 *"
b11 -"
1&"
b101 %"
b11000001001000 B
b1111 x
b110 o
b110 j
b11000 g
b11000000111000 f
b11000001010000 +
b11000001010000 h
b11000001010000 |
b1011 _
b1101 b
b11000000111100 \
b1101 V
b1100 U
b101100000100000 R
b101100000100000 2
b101100000100000 S
b101100000100000 c
b0 O
b11000001000000 <
b11000001000000 A
b11000001000000 H
b11000001000000 K
b1000000000000000000000000000000000000000000000000000000000000000011000 ."
b1000000000000000000000000000000000000000000000000000000000000000011000 6
b11010000000000000000000110000010010000000000000000000000000000000001010000000000000000000000000000000001110 $"
b11010000000000000000000110000010010000000000000000000000000000000001010000000000000000000000000000000001110 1
b110101000000000000000000000110000001110000000000000000000000000000000000000000000000000000000000000000000000000000000000000000000000001100111100000 e
b110101000000000000000000000110000001110000000000000000000000000000000000000000000000000000000000000000000000000000000000000000000000001100111100000 3
b1100000011110000000001100011010101100000100000 M
b1100000011110000000001100011010101100000100000 4
b11000000111100 F
b1110011110110100000100000 5
b1110011110110100000100000 J
b1110011110110100000100000 L
b11000000111100 ;
b11000000111100 G
b11000000111100 I
1)
1.
#310
0)
0.
#320
1w
1@
b0 v
b0 ,
b0 u
b0 }
b1011 9
b1011 z
b1011 !"
b0 7
b0 k
b0 t
b1 0
b1 ("
b1 +"
b100000010 8
b100000010 Z
b100000010 1"
b11000001000100 :
b11000001000100 C
b11000001000100 E
b1101 _
b1111 b
b11000001000000 \
b1111 V
b1110 U
b110100000100000 R
b110100000100000 2
b110100000100000 S
b110100000100000 c
b0 ~
b1 #"
1{
b1011 y
b1101 x
b10 m
b100000 o
0l
b101100000100000 j
b10110000010000000 g
b11000000111100 f
b11001000010111100 +
b11001000010111100 h
b11001000010111100 |
b1111 ,"
b110 *"
b110 %"
b11000001010000 B
12"
b100000010 0"
b101 /"
b1110 [
b11000001000100 <
b11000001000100 A
b11000001000100 H
b11000001000100 K
b1100000100000000000001110011110110100000100000 M
b1100000100000000000001110011110110100000100000 4
b10000110000000000000000000110000001111000000000000000000000000000000000000000000000000000000000000000000000000000000000001011000001000000110101011 e
b10000110000000000000000000110000001111000000000000000000000000000000000000000000000000000000000000000000000000000000000001011000001000000110101011 3
b11010000000000000000000110000010100000000000000000000000000000000001100000000000000000000000000000000001111 $"
b11010000000000000000000110000010100000000000000000000000000000000001100000000000000000000000000000000001111 1
b11000000000000000000000001000000100000000000000000000000000000010101110 ."
b11000000000000000000000001000000100000000000000000000000000000010101110 6
b11000001000000 F
b1111011101100000000100000 5
b1111011101100000000100000 J
b1111011101100000000100000 L
b11000001000000 ;
b11000001000000 G
b11000001000000 I
1)
1.
#330
0)
0.
#340
b1111111111111111 T
b1 8
b1 Z
b1 1"
b0 0
b0 ("
b0 +"
b1101 9
b1101 z
b1101 !"
b11000001001000 :
b11000001001000 C
b11000001001000 E
b1 0"
b110 /"
b1111 [
b1011 ,"
b0 *"
b1 -"
0&"
b0 %"
b11001000010111100 B
b1101 y
b1111 x
b110100000100000 j
b11010000010000000 g
b11000001000000 f
b11101000011000000 +
b11101000011000000 h
b11101000011000000 |
b11000 _
b1110 b
b11000001000100 \
b1110 V
b100000010 >
b100000010 X
b100000010 a
b1111 U
b1100000000100000 R
b11111111111111111100000000100000 2
b11111111111111111100000000100000 S
b11111111111111111100000000100000 c
b11000001001000 <
b11000001001000 A
b11000001001000 H
b11000001001000 K
b11000000000000000000000000000000010000000000000000000000000000011001111 ."
b11000000000000000000000000000000010000000000000000000000000000011001111 6
b1000000000000000000110010000101111001000000000000000000000000000000000000000000000000000000000000000001011 $"
b1000000000000000000110010000101111001000000000000000000000000000000000000000000000000000000000000000001011 1
b10000110000000000000000000110000010000000000000000000000000000000000000000000000000000000000000000000000000000000000000001101000001000000111101101 e
b10000110000000000000000000110000010000000000000000000000000000000000000000000000000000000000000000000000000000000000000001101000001000000111101101 3
b1100000100010000000001111011101100000000100000 M
b1100000100010000000001111011101100000000100000 4
b0 =
b0 W
b0 `
b11000001000100 F
b1110011110100000000100000 5
b1110011110100000000100000 J
b1110011110100000000100000 L
b11000001000100 ;
b11000001000100 G
b11000001000100 I
1)
1.
#350
0)
0.
