test2.vcd
$date
	Thu Jun 02 16:55:18 2016
$end
$version
	Icarus Verilog
$end
$timescale
	1s
$end
$scope module SL2Add $end
$var wire 26 ! in26 [25:0] $end
$var wire 4 " in4 [3:0] $end
$var wire 32 # out32 [31:0] $end
$var reg 2 $ temp [1:0] $end
$upscope $end
$scope module muxtwo_4 $end
$var wire 5 % in1 [4:0] $end
$var wire 5 & in2 [4:0] $end
$var wire 5 ' out [4:0] $end
$var wire 1 ( sl $end
$upscope $end
$scope module testBench $end
$var reg 1 ) clk $end
$var reg 1 * rst $end
$scope module cpu $end
$var wire 32 + addBranchOut [31:0] $end
$var wire 32 , aluResult [31:0] $end
$var wire 4 - aluctrl [3:0] $end
$var wire 1 . clk $end
$var wire 10 / ctrlUnitOutCode [9:0] $end
$var wire 32 0 dmOutData [31:0] $end
$var wire 107 1 exmemOut [106:0] $end
$var wire 32 2 extSign32 [31:0] $end
$var wire 2 3 forwardA [1:0] $end
$var wire 2 4 forwardB [1:0] $end
$var wire 152 5 idexOut [151:0] $end
$var wire 64 6 ifidOut [63:0] $end
$var wire 32 7 imOutData [31:0] $end
$var wire 71 8 memwbOut [70:0] $end
$var wire 32 9 mt1Out [31:0] $end
$var wire 32 : mt2Out [31:0] $end
$var wire 32 ; mw32Out [31:0] $end
$var wire 32 < mw32_memOut [31:0] $end
$var wire 5 = mw5Out [4:0] $end
$var wire 32 > pcInputAddr [31:0] $end
$var wire 32 ? pcOutAddr [31:0] $end
$var wire 32 @ pcPlus4 [31:0] $end
$var wire 32 A reg1Data [31:0] $end
$var wire 32 B reg2Data [31:0] $end
$var wire 1 C rst $end
$var wire 1 D zero $end
$scope module mw32_pc $end
$var wire 32 E in1 [31:0] $end
$var wire 32 F in2 [31:0] $end
$var wire 32 G out [31:0] $end
$var wire 1 H sl $end
$upscope $end
$scope module pc $end
$var wire 1 . clk $end
$var wire 32 I inAddr [31:0] $end
$var wire 1 C rst $end
$var reg 32 J outAddr [31:0] $end
$upscope $end
$scope module add4 $end
$var wire 32 K inAddr [31:0] $end
$var wire 32 L outAddr [31:0] $end
$upscope $end
$scope module im $end
$var wire 32 M inAddr [31:0] $end
$var wire 32 N outContent [31:0] $end
$upscope $end
$scope module ifid $end
$var wire 32 O addr4 [31:0] $end
$var wire 1 . clk $end
$var wire 32 P ins [31:0] $end
$var wire 1 C rst $end
$var reg 64 Q out [63:0] $end
$upscope $end
$scope module controlunit $end
$var wire 1 R clk $end
$var wire 6 S inCode [5:0] $end
$var wire 10 T outCode [9:0] $end
$var reg 10 U result [9:0] $end
$upscope $end
$scope module signext $end
$var wire 16 V in1 [15:0] $end
$var wire 32 W out [31:0] $end
$var wire 16 X temp [15:0] $end
$upscope $end
$scope module regHeap $end
$var wire 1 . clk $end
$var wire 5 Y readReg1 [4:0] $end
$var wire 5 Z readReg2 [4:0] $end
$var wire 32 [ reg1Data [31:0] $end
$var wire 32 \ reg2Data [31:0] $end
$var wire 1 ] regWrite $end
$var wire 32 ^ writeData [31:0] $end
$var wire 5 _ writeReg [4:0] $end
$upscope $end
$scope module idex $end
$var wire 32 ` add4 [31:0] $end
$var wire 1 . clk $end
$var wire 4 a ex [3:0] $end
$var wire 3 b m [2:0] $end
$var wire 5 c rd [4:0] $end
$var wire 32 d readData1 [31:0] $end
$var wire 32 e readData2 [31:0] $end
$var wire 5 f rs [4:0] $end
$var wire 1 C rst $end
$var wire 5 g rt [4:0] $end
$var wire 32 h signExt [31:0] $end
$var wire 2 i wb [1:0] $end
$var reg 152 j out [151:0] $end
$upscope $end
$scope module swapUnit $end
$var wire 1 k EXMEMregWrite $end
$var wire 5 l EXMEMregisterRd [4:0] $end
$var wire 1 m MEMWBregWrite $end
$var wire 5 n MEMWBregisterRd [4:0] $end
$var wire 5 o rd [4:0] $end
$var wire 5 p rs [4:0] $end
$var wire 1 C rst $end
$var wire 5 q rt [4:0] $end
$var reg 2 r forwardA [1:0] $end
$var reg 2 s forwardB [1:0] $end
$upscope $end
$scope module mt1 $end
$var wire 32 t in1 [31:0] $end
$var wire 32 u in2 [31:0] $end
$var wire 32 v in3 [31:0] $end
$var wire 2 w sl [1:0] $end
$var reg 32 x out [31:0] $end
$upscope $end
$scope module mt2 $end
$var wire 32 y in1 [31:0] $end
$var wire 32 z in2 [31:0] $end
$var wire 32 { in3 [31:0] $end
$var wire 2 | sl [1:0] $end
$var reg 32 } out [31:0] $end
$upscope $end
$scope module addBranch $end
$var wire 32 ~ inAddr_add [31:0] $end
$var wire 32 !" inAddr_sl2 [31:0] $end
$var wire 32 "" outAddr [31:0] $end
$upscope $end
$scope module mw32 $end
$var wire 32 #" in1 [31:0] $end
$var wire 32 $" in2 [31:0] $end
$var wire 32 %" out [31:0] $end
$var wire 1 &" sl $end
$upscope $end
$scope module aluControl $end
$var wire 2 '" aluop [1:0] $end
$var wire 1 (" clk $end
$var wire 6 )" func [5:0] $end
$var reg 4 *" aluctrl [3:0] $end
$upscope $end
$scope module alu $end
$var wire 1 +" clk $end
$var wire 4 ," ctrl [3:0] $end
$var wire 32 -" in1 [31:0] $end
$var wire 32 ." in2 [31:0] $end
$var wire 32 /" out [31:0] $end
$var reg 32 0" result [31:0] $end
$var reg 1 1" zero $end
$upscope $end
$scope module mw5 $end
$var wire 5 2" in1 [4:0] $end
$var wire 5 3" in2 [4:0] $end
$var wire 5 4" out [4:0] $end
$var wire 1 5" sl $end
$upscope $end
$scope module exmem $end
$var wire 32 6" addBranch [31:0] $end
$var wire 32 7" aluResult [31:0] $end
$var wire 1 D aluZero $end
$var wire 1 . clk $end
$var wire 3 8" m [2:0] $end
$var wire 5 9" mw5Out [4:0] $end
$var wire 32 :" readData2 [31:0] $end
$var wire 1 C rst $end
$var wire 2 ;" wb [1:0] $end
$var reg 107 <" out [106:0] $end
$upscope $end
$scope module dm $end
$var wire 1 . clk $end
$var wire 32 =" inAddr [31:0] $end
$var wire 1 >" memRead $end
$var wire 1 ?" memWrite $end
$var wire 32 @" outData [31:0] $end
$var wire 32 A" writeData [31:0] $end
$upscope $end
$scope module memwb $end
$var wire 32 B" aluResult [31:0] $end
$var wire 1 . clk $end
$var wire 32 C" readData [31:0] $end
$var wire 1 C rst $end
$var wire 5 D" rtd [4:0] $end
$var wire 2 E" wb [1:0] $end
$var reg 71 F" out [70:0] $end
$upscope $end
$scope module mw32_mem $end
$var wire 32 G" in1 [31:0] $end
$var wire 32 H" in2 [31:0] $end
$var wire 32 I" out [31:0] $end
$var wire 1 J" sl $end
$upscope $end
$upscope $end
$upscope $end
$enddefinitions $end
#0
$dumpvars
0J"
b0 I"
b0 H"
b0 G"
b0 F"
b0 E"
b0 D"
b0 C"
b0 B"
b0 A"
b0 @"
0?"
0>"
b0 ="
b0 <"
b0 ;"
b0 :"
b0 9"
b0 8"
b0 7"
b0 6"
05"
b0 4"
b0 3"
b0 2"
11"
b0 0"
b0 /"
b0 ."
b0 -"
b10 ,"
z+"
b10 *"
b0 )"
z("
b0 '"
0&"
b0 %"
b0 $"
b0 #"
b0 ""
b0 !"
b0 ~
b0 }
b0 |
b0 {
b0 z
b0 y
b0 x
b0 w
b0 v
b0 u
b0 t
b0 s
b0 r
b0 q
b0 p
b0 o
b0 n
0m
b0 l
0k
b0 j
b1 i
b0 h
b0 g
b0 f
b0 e
b0 d
b0 c
b0 b
b110 a
b0 `
b0 _
b0 ^
0]
b0 \
b0 [
b0 Z
b0 Y
b0 X
b0 W
b0 V
b100100010 U
b100100010 T
b0 S
zR
b0 Q
b10001101000010010000000000000100 P
b11000000000100 O
b10001101000010010000000000000100 N
b11000000000000 M
b11000000000100 L
b11000000000000 K
b11000000000000 J
b11000000000100 I
0H
b11000000000100 G
b0 F
b11000000000100 E
1D
1C
b0 B
b0 A
b11000000000100 @
b11000000000000 ?
b11000000000100 >
b0 =
b0 <
b0 ;
b0 :
b0 9
b0 8
b10001101000010010000000000000100 7
b0 6
b0 5
b0 4
b0 3
b0 2
b0 1
b0 0
b100100010 /
1.
b10 -
b0 ,
b0 +
1*
1)
z(
bz '
bz &
bz %
b0 $
b0zzzzzzzzzzzzzzzzzzzzzzzzzzzz00 #
bz "
bz !
$end
#10
0)
0.
#20
b11000000001000 >
b11000000001000 G
b11000000001000 I
b1000 a
b10 b
b11 i
b11000000001000 @
b11000000001000 E
b11000000001000 L
b11000000001000 O
b11110000 U
b11110000 /
b11110000 T
b0 *"
b0 -
b0 ,"
b11000000000100 J
b10001101000010100000000000000000 7
b10001101000010100000000000000000 N
b10001101000010100000000000000000 P
b11000000000100 ?
b11000000000100 K
b11000000000100 M
b1001 g
b11000000000100 `
b1000 f
b1001 Z
b1000 Y
b100 V
b100 2
b100 W
b100 h
b100011 S
b1 ;"
15"
b10 '"
b1100000000010010001101000010010000000000000100 Q
b1100000000010010001101000010010000000000000100 6
b10000110000000000000000000000000000000000000000000000000000000000000000000000000000000000000000000000000000000000000000000000000000000000000000000 j
b10000110000000000000000000000000000000000000000000000000000000000000000000000000000000000000000000000000000000000000000000000000000000000000000000 5
b1000000000000000000000000000000000000000000000000000000000000000000000 <"
b1000000000000000000000000000000000000000000000000000000000000000000000 1
1)
1.
0*
0C
#30
0)
0.
#40
01"
0D
b100 0"
b100 ,
b100 /"
b100 7"
b10 *"
b10 -
b10 ,"
b1001 =
b1001 4"
b1001 9"
b100 ;
b100 %"
b100 ."
b11000000001100 >
b11000000001100 G
b11000000001100 I
b1010 g
b11000000001000 `
b1010 Z
b0 V
b0 2
b0 W
b0 h
b10 8"
b11 ;"
05"
b1001 2"
b0 '"
b100 )"
1&"
b100 $"
b10000 !"
b11000000000100 ~
b11000000010100 +
b11000000010100 ""
b11000000010100 6"
b1001 q
b1000 p
b1 E"
1k
b11000000001100 @
b11000000001100 E
b11000000001100 L
b11000000001100 O
b1100000000100010001101000010100000000000000000 Q
b1100000000100010001101000010100000000000000000 6
b1000110101000000000000000000000110000000001000000000000000000000000000000000000000000000000000000000000000000000000000000000000000000000001000100100000 j
b1000110101000000000000000000000110000000001000000000000000000000000000000000000000000000000000000000000000000000000000000000000000000000001000100100000 5
b1000000000000000000000000000000000001000000000000000000000000000000000000000000000000000000000000000000000 <"
b1000000000000000000000000000000000001000000000000000000000000000000000000000000000000000000000000000000000 1
b11000000001000 J
b1100011010101100000100000 7
b1100011010101100000100000 N
b1100011010101100000100000 P
b11000000001000 ?
b11000000001000 K
b11000000001000 M
1)
1.
#50
0)
0.
#60
b110 a
b0 b
b1 i
b100100010 U
b100100010 /
b100100010 T
11"
1D
b0 0"
b0 ,
b0 /"
b0 7"
b10 0
b10 @"
b10 C"
b1010 =
b1010 4"
b1010 9"
b0 ;
b0 %"
b0 ."
b11000000010000 >
b11000000010000 G
b11000000010000 I
1m
1]
b1001 D"
b100 B"
b11 E"
1>"
b100 ="
b100 {
b100 v
b1001 l
b11000000010100 F
b1010 2"
b0 )"
b0 $"
b0 !"
b11000000001000 ~
b11000000001000 +
b11000000001000 ""
b11000000001000 6"
b1010 q
b1011 c
b1101 g
b11000000001100 `
b1100 f
b1101 Z
b1100 Y
b101100000100000 V
b101100000100000 2
b101100000100000 W
b101100000100000 h
b0 S
b11000000010000 @
b11000000010000 E
b11000000010000 L
b11000000010000 O
b1000000000000000000000000000000000000000000000000000000000000000000000 F"
b1000000000000000000000000000000000000000000000000000000000000000000000 8
b11010000000000000000000110000000101000000000000000000000000000000001000000000000000000000000000000000001001 <"
b11010000000000000000000110000000101000000000000000000000000000000001000000000000000000000000000000000001001 1
b1000110101000000000000000000000110000000010000000000000000000000000000000000000000000000000000000000000000000000000000000000000000000000000000101000000 j
b1000110101000000000000000000000110000000010000000000000000000000000000000000000000000000000000000000000000000000000000000000000000000000000000101000000 5
b1100000000110000000001100011010101100000100000 Q
b1100000000110000000001100011010101100000100000 6
b11000000001100 J
b11000000001100 ?
b11000000001100 K
b11000000001100 M
1)
1.
#70
0)
0.
#80
b1011 =
b1011 4"
b1011 9"
b1 0
b1 @"
b1 C"
b10 <
b10 ^
b10 u
b10 z
b10 I"
b11000000010100 >
b11000000010100 G
b11000000010100 I
b11000000010000 `
b0 8"
b1 ;"
15"
b1011 3"
b1101 2"
b10 '"
b100000 )"
0&"
b101100000100000 $"
b10110000010000000 !"
b11000000001100 ~
b11001000010001100 +
b11001000010001100 ""
b11001000010001100 6"
b1011 o
b1101 q
b1100 p
b1010 D"
b0 B"
b0 ="
b0 {
b0 v
b1010 l
b11000000001000 F
1J"
b10 H"
b100 G"
b1001 n
b1001 _
b11000000010100 @
b11000000010100 E
b11000000010100 L
b11000000010100 O
b1100000001000000000001100011010101100000100000 Q
b1100000001000000000001100011010101100000100000 6
b1100010000110000000000000000000110000000011000000000000000000000000000000000000000000000000000000000000000000000000000000000001011000001000000110101011 j
b1100010000110000000000000000000110000000011000000000000000000000000000000000000000000000000000000000000000000000000000000000001011000001000000110101011 5
b11010000000000000000000110000000010001000000000000000000000000000000000000000000000000000000000000000001010 <"
b11010000000000000000000110000000010001000000000000000000000000000000000000000000000000000000000000000001010 1
b11000000000000000000000000000000100000000000000000000000000000010001001 F"
b11000000000000000000000000000000100000000000000000000000000000010001001 8
b11000000010000 J
b1110011110110100000100000 7
b1110011110110100000100000 N
b1110011110110100000100000 P
b11000000010000 ?
b11000000010000 K
b11000000010000 M
1)
1.
#90
0)
0.
#100
b1 <
b1 ^
b1 u
b1 z
b1 I"
b0 0
b0 @"
b0 C"
b11000000011000 >
b11000000011000 G
b11000000011000 I
b1 H"
b0 G"
b1010 n
b1010 _
b1011 D"
b1 E"
0>"
b1011 l
b11001000010001100 F
b11000000010000 ~
b11001000010010000 +
b11001000010010000 ""
b11001000010010000 6"
b1101 c
b1111 g
b11000000010100 `
b1110 f
b1111 Z
b1110 Y
b110100000100000 V
b110100000100000 2
b110100000100000 W
b110100000100000 h
b11000000011000 @
b11000000011000 E
b11000000011000 L
b11000000011000 O
b11000000000000000000000000000000010000000000000000000000000000000001010 F"
b11000000000000000000000000000000010000000000000000000000000000000001010 8
b1000000000000000000110010000100011001000000000000000000000000000000000000000000000000000000000000000001011 <"
b1000000000000000000110010000100011001000000000000000000000000000000000000000000000000000000000000000001011 1
b1100010000110000000000000000000110000000100000000000000000000000000000000000000000000000000000000000000000000000000000000000001011000001000000110101011 j
b1100010000110000000000000000000110000000100000000000000000000000000000000000000000000000000000000000000000000000000000000000001011000001000000110101011 5
b1100000001010000000001110011110110100000100000 Q
b1100000001010000000001110011110110100000100000 6
b11000000010100 J
b1111011101100000000100000 7
b1111011101100000000100000 N
b1111011101100000000100000 P
b11000000010100 ?
b11000000010100 K
b11000000010100 M
1)
1.
#110
0)
0.
#120
b1111111111111111 X
b1101 =
b1101 4"
b1101 9"
b0 <
b0 ^
b0 u
b0 z
b0 I"
b11000000011100 >
b11000000011100 G
b11000000011100 I
b11000 c
b1110 g
b11000000011000 `
b1111 f
b1110 Z
b1111 Y
b1100000000100000 V
b11111111111111111100000000100000 2
b11111111111111111100000000100000 W
b11111111111111111100000000100000 h
b1101 3"
b1111 2"
b110100000100000 $"
b11010000010000000 !"
b11000000010100 ~
b11101000010010100 +
b11101000010010100 ""
b11101000010010100 6"
b1101 o
b1111 q
b1110 p
b11001000010010000 F
0J"
b0 H"
b1011 n
b1011 _
b11000000011100 @
b11000000011100 E
b11000000011100 L
b11000000011100 O
b1100000001100000000001111011101100000000100000 Q
b1100000001100000000001111011101100000000100000 6
b1110010000110000000000000000000110000000101000000000000000000000000000000000000000000000000000000000000000000000000000000000001101000001000000111101101 j
b1110010000110000000000000000000110000000101000000000000000000000000000000000000000000000000000000000000000000000000000000000001101000001000000111101101 5
b1000000000000000000110010000100100001000000000000000000000000000000000000000000000000000000000000000001011 <"
b1000000000000000000110010000100100001000000000000000000000000000000000000000000000000000000000000000001011 1
b1000000000000000000000000000000000000000000000000000000000000000001011 F"
b1000000000000000000000000000000000000000000000000000000000000000001011 8
b11000000011000 J
b1001010100101100000100000 7
b1001010100101100000100000 N
b1001010100101100000100000 P
b11000000011000 ?
b11000000011000 K
b11000000011000 M
1)
1.
#130
0)
0.
#140
b0 X
b11000 =
b11000 4"
b11000 9"
b11000000100000 >
b11000000100000 G
b11000000100000 I
b1101 D"
b1101 l
b11101000010010100 F
b11000 3"
b1110 2"
b11111111111111111100000000100000 $"
b11111111111111110000000010000000 !"
b11000000011000 ~
b11111111111111110011000010011000 +
b11111111111111110011000010011000 ""
b11111111111111110011000010011000 6"
b11000 o
b1110 q
b1111 p
b1011 c
b1010 g
b11000000011100 `
b1001 f
b1010 Z
b1 B
b1 \
b1 e
b1001 Y
b10 A
b10 [
b10 d
b101100000100000 V
b101100000100000 2
b101100000100000 W
b101100000100000 h
b11000000100000 @
b11000000100000 E
b11000000100000 L
b11000000100000 O
b1000000000000000000111010000100101001000000000000000000000000000000000000000000000000000000000000000001101 <"
b1000000000000000000111010000100101001000000000000000000000000000000000000000000000000000000000000000001101 1
b1111010000110000000000000000000110000000110000000000000000000000000000000000000000000000000000000000000000000111111111111111111000000001000000111011000 j
b1111010000110000000000000000000110000000110000000000000000000000000000000000000000000000000000000000000000000111111111111111111000000001000000111011000 5
b1100000001110000000001001010100101100000100000 Q
b1100000001110000000001001010100101100000100000 6
b11000000011100 J
b1011010010110000000100000 7
b1011010010110000000100000 N
b1011010010110000000100000 P
b11000000011100 ?
b11000000011100 K
b11000000011100 M
1)
1.
#150
0)
0.
#160
b1 ;
b1 %"
b1 ."
01"
0D
b11 0"
b11 ,
b11 /"
b11 7"
b1 }
b1 :
b1 #"
b10 x
b10 9
b10 -"
b1011 =
b1011 4"
b1011 9"
b11000000100100 >
b11000000100100 G
b11000000100100 I
b1100 c
b1001 g
b11000000100000 `
b1011 f
b1001 Z
b10 B
b10 \
b10 e
b1011 Y
b0 A
b0 [
b0 d
b110000000100000 V
b110000000100000 2
b110000000100000 W
b110000000100000 h
b1 :"
b1011 3"
b1010 2"
b101100000100000 $"
b10110000010000000 !"
b11000000011100 ~
b11001000010011100 +
b11001000010011100 ""
b11001000010011100 6"
b1 y
b10 t
b1011 o
b1010 q
b1001 p
b11000 D"
b11000 l
b11111111111111110011000010011000 F
b1101 n
b1101 _
b11000000100100 @
b11000000100100 E
b11000000100100 L
b11000000100100 O
b1100000010000000000001011010010110000000100000 Q
b1100000010000000000001011010010110000000100000 6
b1001010000110000000000000000000110000000111000000000000000000000000000000001000000000000000000000000000000001000000000000000001011000001000000101001011 j
b1001010000110000000000000000000110000000111000000000000000000000000000000001000000000000000000000000000000001000000000000000001011000001000000101001011 5
b1000111111111111111100110000100110001000000000000000000000000000000000000000000000000000000000000000011000 <"
b1000111111111111111100110000100110001000000000000000000000000000000000000000000000000000000000000000011000 1
b1000000000000000000000000000000000000000000000000000000000000000001101 F"
b1000000000000000000000000000000000000000000000000000000000000000001101 8
b11000000100000 J
b1011010100110100000100000 7
b1011010100110100000100000 N
b1011010100110100000100000 P
b11000000100000 ?
b11000000100000 K
b11000000100000 M
1)
1.
#170
0)
0.
#180
b10 ;
b10 %"
b10 ."
b101 0"
b101 ,
b101 /"
b101 7"
b10 }
b10 :
b10 #"
b11 x
b11 9
b11 -"
b10 r
b10 3
b10 w
b1100 =
b1100 4"
b1100 9"
b11000000101000 >
b11000000101000 G
b11000000101000 I
b11000 n
b11000 _
b1011 D"
b11 B"
b1 A"
b11 ="
b11 {
b11 v
b1011 l
b11001000010011100 F
b10 :"
b1100 3"
b1001 2"
b110000000100000 $"
b11000000010000000 !"
b11000000100000 ~
b11011000010100000 +
b11011000010100000 ""
b11011000010100000 6"
b10 y
b0 t
b1100 o
b1001 q
b1011 p
b1101 c
b1010 g
b11000000100100 `
b1010 Z
b1 B
b1 \
b1 e
b110100000100000 V
b110100000100000 2
b110100000100000 W
b110100000100000 h
b11000000101000 @
b11000000101000 E
b11000000101000 L
b11000000101000 O
b1000000000000000000000000000000000000000000000000000000000000000011000 F"
b1000000000000000000000000000000000000000000000000000000000000000011000 8
b1000000000000000000110010000100111000000000000000000000000000000000110000000000000000000000000000000101011 <"
b1000000000000000000110010000100111000000000000000000000000000000000110000000000000000000000000000000101011 1
b1011010000110000000000000000000110000001000000000000000000000000000000000000000000000000000000000000000000010000000000000000001100000001000000100101100 j
b1011010000110000000000000000000110000001000000000000000000000000000000000000000000000000000000000000000000010000000000000000001100000001000000100101100 5
b1100000010010000000001011010100110100000100000 Q
b1100000010010000000001011010100110100000100000 6
b11000000100100 J
b1001011010111000000100000 7
b1001011010111000000100000 N
b1001011010111000000100000 P
b11000000100100 ?
b11000000100100 K
b11000000100100 M
1)
1.
#190
0)
0.
#200
b1 ;
b1 %"
b1 ."
b100 0"
b100 ,
b100 /"
b100 7"
b1 }
b1 :
b1 #"
b11 x
b11 9
b11 -"
b1 r
b1 3
b1 w
b1101 =
b1101 4"
b1101 9"
b11 <
b11 ^
b11 u
b11 z
b11 I"
b11000000101100 >
b11000000101100 G
b11000000101100 I
b1110 c
b1101 g
b11000000101000 `
b1001 f
b1101 Z
b0 B
b0 \
b0 e
b1001 Y
b10 A
b10 [
b10 d
b111000000100000 V
b111000000100000 2
b111000000100000 W
b111000000100000 h
b1 :"
b1101 3"
b1010 2"
b110100000100000 $"
b11010000010000000 !"
b11000000100100 ~
b11101000010100100 +
b11101000010100100 ""
b11101000010100100 6"
b1 y
b1101 o
b1010 q
b1100 D"
b101 B"
b10 A"
b101 ="
b101 {
b101 v
b1100 l
b11011000010100000 F
b11 G"
b1011 n
b1011 _
b11000000101100 @
b11000000101100 E
b11000000101100 L
b11000000101100 O
b1100000010100000000001001011010111000000100000 Q
b1100000010100000000001001011010111000000100000 6
b1011010000110000000000000000000110000001001000000000000000000000000000000000000000000000000000000000000000001000000000000000001101000001000000101001101 j
b1011010000110000000000000000000110000001001000000000000000000000000000000000000000000000000000000000000000001000000000000000001101000001000000101001101 5
b1000000000000000000110110000101000000000000000000000000000000000001010000000000000000000000000000001001100 <"
b1000000000000000000110110000101000000000000000000000000000000000001010000000000000000000000000000001001100 1
b1000000000000000000000000000000000000000000000000000000000000001101011 F"
b1000000000000000000000000000000000000000000000000000000000000001101011 8
b11000000101000 J
b1010011010111100000100000 7
b1010011010111100000100000 N
b1010011010111100000100000 P
b11000000101000 ?
b11000000101000 K
b11000000101000 M
1)
1.
#210
0)
0.
#220
b110 0"
b110 ,
b110 /"
b110 7"
b100 ;
b100 %"
b100 ."
b10 x
b10 9
b10 -"
b100 }
b100 :
b100 #"
b10 s
b10 4
b10 |
b0 r
b0 3
b0 w
b101 <
b101 ^
b101 u
b101 z
b101 I"
b1110 =
b1110 4"
b1110 9"
b11000000110000 >
b11000000110000 G
b11000000110000 I
b101 G"
b1100 n
b1100 _
b1101 D"
b100 B"
b1 A"
b100 ="
b100 {
b100 v
b1101 l
b11101000010100100 F
b0 :"
b1110 3"
b1101 2"
b111000000100000 $"
b11100000010000000 !"
b11000000101000 ~
b11111000010101000 +
b11111000010101000 ""
b11111000010101000 6"
b0 y
b10 t
b1110 o
b1101 q
b1001 p
b1111 c
b11000000101100 `
b1010 f
b1010 Y
b1 A
b1 [
b1 d
b111100000100000 V
b111100000100000 2
b111100000100000 W
b111100000100000 h
b11000000110000 @
b11000000110000 E
b11000000110000 L
b11000000110000 O
b1000000000000000000000000000000000000000000000000000000000000010101100 F"
b1000000000000000000000000000000000000000000000000000000000000010101100 8
b1000000000000000000111010000101001000000000000000000000000000000001000000000000000000000000000000000101101 <"
b1000000000000000000111010000101001000000000000000000000000000000001000000000000000000000000000000000101101 1
b1001010000110000000000000000000110000001010000000000000000000000000000000001000000000000000000000000000000000000000000000000001110000001000000110101110 j
b1001010000110000000000000000000110000001010000000000000000000000000000000001000000000000000000000000000000000000000000000000001110000001000000110101110 5
b1100000010110000000001010011010111100000100000 Q
b1100000010110000000001010011010111100000100000 6
b11000000101100 J
b1111010100111100000100000 7
b1111010100111100000100000 N
b1111010100111100000100000 P
b11000000101100 ?
b11000000101100 K
b11000000101100 M
1)
1.
#230
0)
0.
#240
b100 ;
b100 %"
b100 ."
b101 0"
b101 ,
b101 /"
b101 7"
b100 }
b100 :
b100 #"
b1 x
b1 9
b1 -"
b1 s
b1 4
b1 |
b1111 =
b1111 4"
b1111 9"
b100 <
b100 ^
b100 u
b100 z
b100 I"
b11000000110100 >
b11000000110100 G
b11000000110100 I
b1010 g
b11000000110000 `
b1111 f
b1010 Z
b1 B
b1 \
b1 e
b1111 Y
b0 A
b0 [
b0 d
b1111 3"
b111100000100000 $"
b11110000010000000 !"
b11000000101100 ~
b100001000010101100 +
b100001000010101100 ""
b100001000010101100 6"
b1 t
b1111 o
b1010 p
b1110 D"
b110 B"
b0 A"
b110 ="
b110 {
b110 v
b1110 l
b11111000010101000 F
b100 G"
b1101 n
b1101 _
b11000000110100 @
b11000000110100 E
b11000000110100 L
b11000000110100 O
b1100000011000000000001111010100111100000100000 Q
b1100000011000000000001111010100111100000100000 6
b1010010000110000000000000000000110000001011000000000000000000000000000000000100000000000000000000000000000000000000000000000001111000001000000110101111 j
b1010010000110000000000000000000110000001011000000000000000000000000000000000100000000000000000000000000000000000000000000000001111000001000000110101111 5
b1000000000000000000111110000101010000000000000000000000000000000001100000000000000000000000000000000001110 <"
b1000000000000000000111110000101010000000000000000000000000000000001100000000000000000000000000000000001110 1
b1000000000000000000000000000000000000000000000000000000000000010001101 F"
b1000000000000000000000000000000000000000000000000000000000000010001101 8
b11000000110000 J
b11000000110000 ?
b11000000110000 K
b11000000110000 M
1)
1.
#250
0)
0.
#260
b1 ;
b1 %"
b1 ."
b110 0"
b110 ,
b110 /"
b110 7"
b1 }
b1 :
b1 #"
b101 x
b101 9
b101 -"
b0 s
b0 4
b0 |
b10 r
b10 3
b10 w
b110 <
b110 ^
b110 u
b110 z
b110 I"
b11000000111000 >
b11000000111000 G
b11000000111000 I
b110 G"
b1110 n
b1110 _
b1111 D"
b101 B"
b101 ="
b101 {
b101 v
b1111 l
b100001000010101100 F
b1 :"
b1010 2"
b11000000110000 ~
b100001000010110000 +
b100001000010110000 ""
b100001000010110000 6"
b1 y
b0 t
b1010 q
b1111 p
b11000000110100 `
b11000000111000 @
b11000000111000 E
b11000000111000 L
b11000000111000 O
b1000000000000000000000000000000000000000000000000000000000000011001110 F"
b1000000000000000000000000000000000000000000000000000000000000011001110 8
b1000000000000000001000010000101011000000000000000000000000000000001010000000000000000000000000000000001111 <"
b1000000000000000001000010000101011000000000000000000000000000000001010000000000000000000000000000000001111 1
b1111010000110000000000000000000110000001100000000000000000000000000000000000000000000000000000000000000000001000000000000000001111000001000000101001111 j
b1111010000110000000000000000000110000001100000000000000000000000000000000000000000000000000000000000000000001000000000000000001111000001000000101001111 5
b1100000011010000000001111010100111100000100000 Q
b1100000011010000000001111010100111100000100000 6
b11000000110100 J
bx 7
bx N
bx P
b11000000110100 ?
b11000000110100 K
b11000000110100 M
1)
1.
#270
0)
0.
#280
b0 a
b0 i
b111 0"
b111 ,
b111 /"
b111 7"
b0 U
b0 /
b0 T
b110 x
b110 9
b110 -"
bx X
b101 <
b101 ^
b101 u
b101 z
b101 I"
b11000000111100 >
b11000000111100 G
b11000000111100 I
bx c
bx g
b11000000111000 `
bx f
bx Z
bx B
bx \
bx e
bx Y
bx A
bx [
bx d
bx V
bx 2
bx W
bx h
bx S
b11000000110100 ~
b100001000010110100 +
b100001000010110100 ""
b100001000010110100 6"
b110 B"
b1 A"
b110 ="
b110 {
b110 v
b100001000010110000 F
b101 G"
b1111 n
b1111 _
b11000000111100 @
b11000000111100 E
b11000000111100 L
b11000000111100 O
b11000000111000xxxxxxxxxxxxxxxxxxxxxxxxxxxxxxxx Q
b11000000111000xxxxxxxxxxxxxxxxxxxxxxxxxxxxxxxx 6
b1111010000110000000000000000000110000001101000000000000000000000000000000000000000000000000000000000000000001000000000000000001111000001000000101001111 j
b1111010000110000000000000000000110000001101000000000000000000000000000000000000000000000000000000000000000001000000000000000001111000001000000101001111 5
b1000000000000000001000010000101100000000000000000000000000000000001100000000000000000000000000000000101111 <"
b1000000000000000001000010000101100000000000000000000000000000000001100000000000000000000000000000000101111 1
b1000000000000000000000000000000000000000000000000000000000000010101111 F"
b1000000000000000000000000000000000000000000000000000000000000010101111 8
b11000000111000 J
b11000000111000 ?
b11000000111000 K
b11000000111000 M
1)
1.
#290
0)
0.
