test2.vcd
$date
	Sun Jun 05 23:04:20 2016
$end
$version
	Icarus Verilog
$end
$timescale
	1s
$end
$scope module muxtwo_4 $end
$var wire 5 ! in1 [4:0] $end
$var wire 5 " in2 [4:0] $end
$var wire 5 # out [4:0] $end
$var wire 1 $ sl $end
$upscope $end
$scope module testBench $end
$var reg 1 % clk $end
$var reg 1 & rst $end
$scope module cpu $end
$var wire 1 ' IFFlush $end
$var wire 1 ( IFIDWrite $end
$var wire 1 ) PCWrite $end
$var wire 32 * addBranchOut [31:0] $end
$var wire 32 + aluResult [31:0] $end
$var wire 4 , aluctrl [3:0] $end
$var wire 1 - clk $end
$var wire 1 . ctrlSetZero $end
$var wire 10 / ctrlUnitOutCode [9:0] $end
$var wire 32 0 dmOutData [31:0] $end
$var wire 107 1 exmemOut [106:0] $end
$var wire 32 2 extSign32 [31:0] $end
$var wire 2 3 forwardA [1:0] $end
$var wire 2 4 forwardB [1:0] $end
$var wire 152 5 idexOut [151:0] $end
$var wire 64 6 ifidOut [63:0] $end
$var wire 32 7 imOutData [31:0] $end
$var wire 1 8 isBranchOut $end
$var wire 71 9 memwbOut [70:0] $end
$var wire 32 : mt1Out [31:0] $end
$var wire 32 ; mt2Out [31:0] $end
$var wire 32 < mt3Out [31:0] $end
$var wire 32 = mt4Out [31:0] $end
$var wire 32 > mw32Out [31:0] $end
$var wire 32 ? mw32_memOut [31:0] $end
$var wire 5 @ mw5Out [4:0] $end
$var wire 9 A mw9Out [8:0] $end
$var wire 1 B overflow $end
$var wire 32 C pc1Out [31:0] $end
$var wire 32 D pcInputAddr [31:0] $end
$var wire 32 E pcOutAddr [31:0] $end
$var wire 32 F pcPlus4 [31:0] $end
$var wire 32 G reg1Data [31:0] $end
$var wire 32 H reg2Data [31:0] $end
$var wire 1 I rst $end
$var wire 32 J sl2AddOut [31:0] $end
$var wire 1 K zero $end
$scope module mw32_pc1 $end
$var wire 32 L in1 [31:0] $end
$var wire 32 M in2 [31:0] $end
$var wire 32 N out [31:0] $end
$var wire 1 8 sl $end
$upscope $end
$scope module sl2Add $end
$var wire 26 O in26 [25:0] $end
$var wire 4 P in4 [3:0] $end
$var wire 32 Q out32 [31:0] $end
$var reg 2 R temp [1:0] $end
$upscope $end
$scope module mw32_pc2 $end
$var wire 32 S in1 [31:0] $end
$var wire 32 T in2 [31:0] $end
$var wire 32 U out [31:0] $end
$var wire 1 V sl $end
$upscope $end
$scope module pc $end
$var wire 1 ) PCWrite $end
$var wire 1 - clk $end
$var wire 32 W inAddr [31:0] $end
$var wire 1 B overflow $end
$var wire 1 I rst $end
$var reg 32 X outAddr [31:0] $end
$upscope $end
$scope module add4 $end
$var wire 32 Y inAddr [31:0] $end
$var wire 32 Z outAddr [31:0] $end
$upscope $end
$scope module im $end
$var wire 32 [ inAddr [31:0] $end
$var wire 32 \ outContent [31:0] $end
$upscope $end
$scope module ifid $end
$var wire 1 ' IFFlush $end
$var wire 1 ( IFIDWrite $end
$var wire 32 ] addr4 [31:0] $end
$var wire 1 - clk $end
$var wire 32 ^ ins [31:0] $end
$var wire 1 I rst $end
$var reg 64 _ out [63:0] $end
$upscope $end
$scope module hazardCheck $end
$var wire 1 ` EXMEMRead $end
$var wire 5 a EXMEMRt [4:0] $end
$var wire 1 b IDEXMemRead $end
$var wire 5 c IDEXRd [4:0] $end
$var wire 1 d IDEXRegWrite $end
$var wire 5 e IDEXRt [4:0] $end
$var wire 5 f IFIDRs [4:0] $end
$var wire 5 g IFIDRt [4:0] $end
$var wire 1 - clk $end
$var wire 6 h opcode [5:0] $end
$var reg 1 i IFIDWrite $end
$var reg 1 j PCWrite $end
$var reg 1 k ctrlSetZero $end
$upscope $end
$scope module controlunit $end
$var wire 1 l clk $end
$var wire 6 m inCode [5:0] $end
$var wire 10 n outCode [9:0] $end
$var reg 10 o result [9:0] $end
$upscope $end
$scope module mt3 $end
$var wire 32 p in1 [31:0] $end
$var wire 32 q in2 [31:0] $end
$var wire 32 r in3 [31:0] $end
$var wire 2 s sl [1:0] $end
$var reg 32 t out [31:0] $end
$upscope $end
$scope module mt4 $end
$var wire 32 u in1 [31:0] $end
$var wire 32 v in2 [31:0] $end
$var wire 32 w in3 [31:0] $end
$var wire 2 x sl [1:0] $end
$var reg 32 y out [31:0] $end
$upscope $end
$scope module isBranch $end
$var wire 32 z in1 [31:0] $end
$var wire 32 { in2 [31:0] $end
$var wire 6 | opcode [5:0] $end
$var reg 1 } IFFlush $end
$var reg 1 ~ out $end
$upscope $end
$scope module addBranch $end
$var wire 32 !" inAddr_add [31:0] $end
$var wire 32 "" inAddr_sl2 [31:0] $end
$var wire 32 #" outAddr [31:0] $end
$upscope $end
$scope module mw9 $end
$var wire 9 $" in1 [8:0] $end
$var wire 9 %" in2 [8:0] $end
$var wire 9 &" out [8:0] $end
$var wire 1 . sl $end
$upscope $end
$scope module signext $end
$var wire 16 '" in1 [15:0] $end
$var wire 32 (" out [31:0] $end
$var wire 16 )" temp [15:0] $end
$upscope $end
$scope module regHeap $end
$var wire 1 - clk $end
$var wire 5 *" readReg1 [4:0] $end
$var wire 5 +" readReg2 [4:0] $end
$var wire 32 ," reg1Data [31:0] $end
$var wire 32 -" reg2Data [31:0] $end
$var wire 1 ." regWrite $end
$var wire 32 /" writeData [31:0] $end
$var wire 5 0" writeReg [4:0] $end
$upscope $end
$scope module idex $end
$var wire 32 1" add4 [31:0] $end
$var wire 1 - clk $end
$var wire 4 2" ex [3:0] $end
$var wire 3 3" m [2:0] $end
$var wire 5 4" rd [4:0] $end
$var wire 32 5" readData1 [31:0] $end
$var wire 32 6" readData2 [31:0] $end
$var wire 5 7" rs [4:0] $end
$var wire 1 I rst $end
$var wire 5 8" rt [4:0] $end
$var wire 32 9" signExt [31:0] $end
$var wire 2 :" wb [1:0] $end
$var reg 152 ;" out [151:0] $end
$upscope $end
$scope module swapUnit $end
$var wire 1 <" EXMEMregWrite $end
$var wire 5 =" EXMEMregisterRd [4:0] $end
$var wire 1 >" MEMWBregWrite $end
$var wire 5 ?" MEMWBregisterRd [4:0] $end
$var wire 5 @" rd [4:0] $end
$var wire 5 A" rs [4:0] $end
$var wire 1 I rst $end
$var wire 5 B" rt [4:0] $end
$var reg 2 C" forwardA [1:0] $end
$var reg 2 D" forwardB [1:0] $end
$upscope $end
$scope module mt1 $end
$var wire 32 E" in1 [31:0] $end
$var wire 32 F" in2 [31:0] $end
$var wire 32 G" in3 [31:0] $end
$var wire 2 H" sl [1:0] $end
$var reg 32 I" out [31:0] $end
$upscope $end
$scope module mt2 $end
$var wire 32 J" in1 [31:0] $end
$var wire 32 K" in2 [31:0] $end
$var wire 32 L" in3 [31:0] $end
$var wire 2 M" sl [1:0] $end
$var reg 32 N" out [31:0] $end
$upscope $end
$scope module mw32 $end
$var wire 32 O" in1 [31:0] $end
$var wire 32 P" in2 [31:0] $end
$var wire 32 Q" out [31:0] $end
$var wire 1 R" sl $end
$upscope $end
$scope module aluControl $end
$var wire 2 S" aluop [1:0] $end
$var wire 1 T" clk $end
$var wire 6 U" func [5:0] $end
$var reg 4 V" aluctrl [3:0] $end
$upscope $end
$scope module alu $end
$var wire 1 W" clk $end
$var wire 4 X" ctrl [3:0] $end
$var wire 32 Y" in1 [31:0] $end
$var wire 32 Z" in2 [31:0] $end
$var wire 32 [" out [31:0] $end
$var reg 1 \" overflow $end
$var reg 32 ]" result [31:0] $end
$var reg 1 ^" zero $end
$upscope $end
$scope module mw5 $end
$var wire 5 _" in1 [4:0] $end
$var wire 5 `" in2 [4:0] $end
$var wire 5 a" out [4:0] $end
$var wire 1 b" sl $end
$upscope $end
$scope module exmem $end
$var wire 32 c" addBranch [31:0] $end
$var wire 32 d" aluResult [31:0] $end
$var wire 1 K aluZero $end
$var wire 1 - clk $end
$var wire 3 e" m [2:0] $end
$var wire 5 f" mw5Out [4:0] $end
$var wire 32 g" readData2 [31:0] $end
$var wire 1 I rst $end
$var wire 2 h" wb [1:0] $end
$var reg 107 i" out [106:0] $end
$upscope $end
$scope module dm $end
$var wire 1 - clk $end
$var wire 32 j" inAddr [31:0] $end
$var wire 1 k" memRead $end
$var wire 1 l" memWrite $end
$var wire 32 m" outData [31:0] $end
$var wire 32 n" writeData [31:0] $end
$upscope $end
$scope module memwb $end
$var wire 32 o" aluResult [31:0] $end
$var wire 1 - clk $end
$var wire 32 p" readData [31:0] $end
$var wire 1 I rst $end
$var wire 5 q" rtd [4:0] $end
$var wire 2 r" wb [1:0] $end
$var reg 71 s" out [70:0] $end
$upscope $end
$scope module mw32_mem $end
$var wire 32 t" in1 [31:0] $end
$var wire 32 u" in2 [31:0] $end
$var wire 32 v" out [31:0] $end
$var wire 1 w" sl $end
$upscope $end
$upscope $end
$upscope $end
$enddefinitions $end
#0
$dumpvars
0w"
b0 v"
b0 u"
b0 t"
b0 s"
b0 r"
b0 q"
b0 p"
b0 o"
b0 n"
b0 m"
0l"
0k"
b0 j"
b0 i"
b0 h"
b0 g"
b0 f"
b0 e"
b0 d"
b0 c"
0b"
b0 a"
b0 `"
b0 _"
1^"
b0 ]"
0\"
b0 ["
b0 Z"
b0 Y"
b10 X"
zW"
b10 V"
b0 U"
zT"
b0 S"
0R"
b0 Q"
b0 P"
b0 O"
b0 N"
b0 M"
b0 L"
b0 K"
b0 J"
b0 I"
b0 H"
b0 G"
b0 F"
b0 E"
b0 D"
b0 C"
b0 B"
b0 A"
b0 @"
b0 ?"
0>"
b0 ="
0<"
b0 ;"
b1 :"
b0 9"
b0 8"
b0 7"
b0 6"
b0 5"
b0 4"
b0 3"
b110 2"
b0 1"
b0 0"
b0 /"
0."
b0 -"
b0 ,"
b0 +"
b0 *"
b0 )"
b0 ("
b0 '"
b100100010 &"
b0 %"
b100100010 $"
b0 #"
b0 ""
b0 !"
0~
0}
b0 |
b0 {
b0 z
b0 y
b0 x
b0 w
b0 v
b0 u
b0 t
b0 s
b0 r
b0 q
b0 p
b100100010 o
b100100010 n
b0 m
zl
0k
1j
1i
b0 h
b0 g
b0 f
b0 e
0d
b0 c
0b
b0 a
0`
b0 _
b10001101000010100000000000000000 ^
b11000000000100 ]
b10001101000010100000000000000000 \
b11000000000000 [
b11000000000100 Z
b11000000000000 Y
b11000000000000 X
b11000000000100 W
0V
b11000000000100 U
b0 T
b11000000000100 S
b0 R
b0 Q
b0 P
b0 O
b11000000000100 N
b0 M
b11000000000100 L
1K
b0 J
1I
b0 H
b0 G
b11000000000100 F
b11000000000000 E
b11000000000100 D
b11000000000100 C
0B
b100100010 A
b0 @
b0 ?
b0 >
b0 =
b0 <
b0 ;
b0 :
b0 9
08
b10001101000010100000000000000000 7
b0 6
b0 5
b0 4
b0 3
b0 2
b0 1
b0 0
b100100010 /
0.
1-
b10 ,
b0 +
b0 *
1)
1(
0'
1&
1%
z$
bz #
bz "
bz !
$end
#10
0%
0-
#20
b1000 2"
b10 3"
b11000000001000 D
b11000000001000 U
b11000000001000 W
b11110000 A
b11110000 &"
b11000000001000 C
b11000000001000 N
b11000000001000 S
b11 :"
b11110000 $"
b11000000001000 F
b11000000001000 L
b11000000001000 Z
b11000000001000 ]
b11110000 o
b11110000 /
b11110000 n
b0 V"
b0 ,
b0 X"
b11000000000100 X
b1010010100101100000100000 7
b1010010100101100000100000 \
b1010010100101100000100000 ^
b11000000000100 E
b11000000000100 Y
b11000000000100 [
b1010000000000000000000 J
b1010000000000000000000 Q
b1010000000000000000000 T
b1010 8"
b11000000000100 1"
b1000 7"
b1010 +"
b1000 *"
b11000000000100 !"
b11000000000100 *
b11000000000100 M
b11000000000100 #"
b11000000000100 c"
b100011 |
b100011 m
b100011 h
b1010 g
b1000 f
b1000010100000000000000000 O
b1 h"
1b"
b10 S"
1d
b1100000000010010001101000010100000000000000000 _
b1100000000010010001101000010100000000000000000 6
b10000110000000000000000000000000000000000000000000000000000000000000000000000000000000000000000000000000000000000000000000000000000000000000000000 ;"
b10000110000000000000000000000000000000000000000000000000000000000000000000000000000000000000000000000000000000000000000000000000000000000000000000 5
b1000000000000000000000000000000000000000000000000000000000000000000000 i"
b1000000000000000000000000000000000000000000000000000000000000000000000 1
1%
1-
0&
0I
#30
0%
0-
#40
b0 2"
b0 3"
b0 :"
b100100010 $"
b0 A
b0 &"
b100100010 o
b100100010 /
b100100010 n
b10 V"
b10 ,
b10 X"
1k
1.
0i
0(
0j
0)
b11000000001100 D
b11000000001100 U
b11000000001100 W
b1001010010110000010000000 J
b1001010010110000010000000 Q
b1001010010110000010000000 T
b1010 @
b1010 a"
b1010 f"
b11000000001100 C
b11000000001100 N
b11000000001100 S
b1011 4"
b11000000001000 1"
b1010 7"
b1010 *"
b101100000100000 '"
b10110000010000000 ""
b101100000100000 2
b101100000100000 ("
b101100000100000 9"
b11000000001000 !"
b11001000010001000 *
b11001000010001000 M
b11001000010001000 #"
b11001000010001000 c"
b0 |
b0 m
b0 h
b1010 f
b1010010100101100000100000 O
b10 e"
b11 h"
0b"
b1010 _"
b0 S"
1R"
b1010 B"
b1000 A"
b1010 e
1b
b1 r"
1<"
b11000000001100 F
b11000000001100 L
b11000000001100 Z
b11000000001100 ]
b1100000000100000000001010010100101100000100000 _
b1100000000100000000001010010100101100000100000 6
b1000110101000000000000000000000110000000001000000000000000000000000000000000000000000000000000000000000000000000000000000000000000000000000000101000000 ;"
b1000110101000000000000000000000110000000001000000000000000000000000000000000000000000000000000000000000000000000000000000000000000000000000000101000000 5
b1000000000000000000000110000000001001000000000000000000000000000000000000000000000000000000000000000000000 i"
b1000000000000000000000110000000001001000000000000000000000000000000000000000000000000000000000000000000000 1
b11000000001000 X
b1000010000100000000100000 7
b1000010000100000000100000 \
b1000010000100000000100000 ^
b11000000001000 E
b11000000001000 Y
b11000000001000 [
1%
1-
#50
0%
0-
#60
b110 2"
b1 :"
b100100010 A
b100100010 &"
b10 D"
b10 4
b10 x
b10 M"
b10 C"
b10 3
b10 s
b10 H"
0k
0.
1i
1(
1j
1)
b1 0
b1 m"
b1 p"
1>"
1."
b1010 q"
b11 r"
1k"
b1010 ="
b1010 a
1`
b0 e"
b0 h"
b1011 `"
b100000 U"
0R"
b101100000100000 P"
b1011 @"
b1010 A"
0d
b1011 c
0b
b1000000000000000000000000000000000000000000000000000000000000000000000 s"
b1000000000000000000000000000000000000000000000000000000000000000000000 9
b11010000000000000000110010000100010001000000000000000000000000000000000000000000000000000000000000000001010 i"
b11010000000000000000110010000100010001000000000000000000000000000000000000000000000000000000000000000001010 1
b1010000000000000000000000000000110000000010000000000000000000000000000000000000000000000000000000000000000000000000000000000001011000001000000101001011 ;"
b1010000000000000000000000000000110000000010000000000000000000000000000000000000000000000000000000000000000000000000000000000001011000001000000101001011 5
1%
1-
#70
0%
0-
#80
b1 >
b1 Q"
b1 Z"
0^"
0K
b10 ]"
b10 +
b10 ["
b10 d"
b1 N"
b1 ;
b1 O"
b1 y
b1 =
b1 {
b1 I"
b1 :
b1 Y"
b1 t
b1 <
b1 z
b1 D"
b1 4
b1 x
b1 M"
b1 C"
b1 3
b1 s
b1 H"
b11000000010000 D
b11000000010000 U
b11000000010000 W
b1000010000000010000000 J
b1000010000000010000000 Q
b1000010000000010000000 T
b1011 @
b1011 a"
b1011 f"
b0 0
b0 m"
b0 p"
b1 ?
b1 q
b1 v
b1 /"
b1 F"
b1 K"
b1 v"
b11000000010000 C
b11000000010000 N
b11000000010000 S
b1000 4"
b1000 8"
b11000000001100 1"
b1000 7"
b1000 +"
b1000 *"
b100000000100000 '"
b10000000010000000 ""
b100000000100000 2
b100000000100000 ("
b100000000100000 9"
b11000000001100 !"
b10011000010001100 *
b10011000010001100 M
b10011000010001100 #"
b10011000010001100 c"
b1000 g
b1000 f
b1000010000100000000100000 O
b1 h"
1b"
b10 S"
1d
b0 r"
0k"
0<"
0`
1w"
b1 u"
b1010 ?"
b1010 0"
b11000000010000 F
b11000000010000 L
b11000000010000 Z
b11000000010000 ]
b1100000000110000000001000010000100000000100000 _
b1100000000110000000001000010000100000000100000 6
b1010010000110000000000000000000110000000010000000000000000000000000000000000000000000000000000000000000000000000000000000000001011000001000000101001011 ;"
b1010010000110000000000000000000110000000010000000000000000000000000000000000000000000000000000000000000000000000000000000000001011000001000000101001011 5
b110010000100010001000000000000000000000000000000000000000000000000000000000000000001010 i"
b110010000100010001000000000000000000000000000000000000000000000000000000000000000001010 1
b11000000000000000000000000000000010000000000000000000000000000000001010 s"
b11000000000000000000000000000000010000000000000000000000000000000001010 9
b11000000001100 X
b1000000000000000110000000000 7
b1000000000000000110000000000 \
b1000000000000000110000000000 ^
b11000000001100 E
b11000000001100 Y
b11000000001100 [
1%
1-
#90
0%
0-
#100
b0 2"
b0 :"
1^"
1K
b0 A
b0 &"
b0 >
b0 Q"
b0 Z"
b0 ]"
b0 +
b0 ["
b0 d"
b0 $"
1V
b0 N"
b0 ;
b0 O"
b0 I"
b0 :
b0 Y"
b0 y
b0 =
b0 {
b0 t
b0 <
b0 z
b0 D"
b0 4
b0 x
b0 M"
b0 C"
b0 3
b0 s
b0 H"
0}
0'
b1000000000 o
b1000000000 /
b1000000000 n
b11000000000000 D
b11000000000000 U
b11000000000000 W
b0 ?
b0 q
b0 v
b0 /"
b0 F"
b0 K"
b0 v"
b1000 @
b1000 a"
b1000 f"
b11000000000000 J
b11000000000000 Q
b11000000000000 T
b11000000010100 C
b11000000010100 N
b11000000010100 S
0w"
b0 u"
0>"
0."
b1011 q"
b10 o"
b1 r"
b10 j"
b10 L"
b10 G"
b1011 ="
1<"
b10 w
b10 r
b1011 a
b1000 `"
b1000 _"
b100000000100000 P"
b1000 @"
b1000 B"
b1000 A"
b1000 c
b1000 e
b1 4"
b0 8"
b11000000010000 1"
b0 7"
b0 +"
b0 *"
b110000000000 '"
b11000000000000 ""
b110000000000 2
b110000000000 ("
b110000000000 9"
b11000000010000 !"
b110000000010000 *
b110000000010000 M
b110000000010000 #"
b110000000010000 c"
b10 |
b10 m
b10 h
b0 g
b0 f
b110000000000 O
b11000000010100 F
b11000000010100 L
b11000000010100 Z
b11000000010100 ]
b1010 s"
b1010 9
b1000000000000000000100110000100011000000000000000000000000000000000100000000000000000000000000000000001011 i"
b1000000000000000000100110000100011000000000000000000000000000000000100000000000000000000000000000000001011 1
b1000010000110000000000000000000110000000011000000000000000000000000000000000000000000000000000000000000000000000000000000000001000000001000000100001000 ;"
b1000010000110000000000000000000110000000011000000000000000000000000000000000000000000000000000000000000000000000000000000000001000000001000000100001000 5
b1100000001000000001000000000000000110000000000 _
b1100000001000000001000000000000000110000000000 6
b11000000010000 X
bx 7
bx \
bx ^
b11000000010000 E
b11000000010000 Y
b11000000010000 [
1%
1-
#110
0%
0-
#120
0V
b0 o
b0 /
b0 n
bx y
bx =
bx {
bx t
bx <
bx z
bx )"
b11000000000100 D
b11000000000100 U
b11000000000100 W
b0xxxxxxxxxxxxxxxxxxxxxxxx00 J
b0xxxxxxxxxxxxxxxxxxxxxxxx00 Q
b0xxxxxxxxxxxxxxxxxxxxxxxx00 T
b0 @
b0 a"
b0 f"
b10 ?
b10 q
b10 v
b10 /"
b10 F"
b10 K"
b10 v"
b11000000000100 C
b11000000000100 N
b11000000000100 S
bx 4"
bx 8"
b11000000010100 1"
bx 7"
bx +"
bx H
bx u
bx -"
bx 6"
bx *"
bx G
bx p
bx ,"
bx 5"
bx '"
bx ""
bx 2
bx ("
bx 9"
b11000000010100 !"
bx *
bx M
bx #"
bx c"
bx |
bx m
bx h
bx g
bx f
bx O
b0 h"
0b"
b1 `"
b0 _"
b0 S"
b0 U"
b110000000000 P"
b1 @"
b0 B"
b0 A"
0d
b1 c
b0 e
b1000 q"
b0 o"
b0 j"
b0 L"
b0 G"
b1000 ="
b0 w
b0 r
b1000 a
b10 t"
1>"
b1011 ?"
1."
b1011 0"
b11000000000100 F
b11000000000100 L
b11000000000100 Z
b11000000000100 ]
b11000000010100xxxxxxxxxxxxxxxxxxxxxxxxxxxxxxxx _
b11000000010100xxxxxxxxxxxxxxxxxxxxxxxxxxxxxxxx 6
b110000000100000000000000000000000000000000000000000000000000000000000000000000000000000000000000001100000000000000000001 ;"
b110000000100000000000000000000000000000000000000000000000000000000000000000000000000000000000000001100000000000000000001 5
b1000000000000000000001100000000100001000000000000000000000000000000000000000000000000000000000000000001000 i"
b1000000000000000000001100000000100001000000000000000000000000000000000000000000000000000000000000000001000 1
b1000000000000000000000000000000000000000000000000000000000000001001011 s"
b1000000000000000000000000000000000000000000000000000000000000001001011 9
b11000000000000 X
b10001101000010100000000000000000 7
b10001101000010100000000000000000 \
b10001101000010100000000000000000 ^
b11000000000000 E
b11000000000000 Y
b11000000000000 [
1%
1-
#130
0%
0-
#140
b1000 2"
b10 3"
b11110000 A
b11110000 &"
bx >
bx Q"
bx Z"
x^"
xK
bx ]"
bx +
bx ["
bx d"
b11 :"
b11110000 $"
bx N"
bx ;
bx O"
bx I"
bx :
bx Y"
b1 y
b1 =
b1 {
b0 t
b0 <
b0 z
b11110000 o
b11110000 /
b11110000 n
b0 ""
b11000000000100 *
b11000000000100 M
b11000000000100 #"
b11000000000100 c"
b0 )"
b11000000001000 D
b11000000001000 U
b11000000001000 W
b0 ?
b0 q
b0 v
b0 /"
b0 F"
b0 K"
b0 v"
bx @
bx a"
bx f"
b1010000000000000000000 J
b1010000000000000000000 Q
b1010000000000000000000 T
b11000000001000 C
b11000000001000 N
b11000000001000 S
b0 t"
b1000 ?"
b1000 0"
b0 q"
b0 r"
b0 ="
0<"
b0 a
bx g"
bx `"
bx _"
bx U"
bx P"
bx J"
bx E"
bx @"
bx B"
bx A"
bx c
bx e
b0 4"
b1010 8"
b11000000000100 1"
b1000 7"
b1010 +"
b1 H
b1 u
b1 -"
b1 6"
b1000 *"
b0 G
b0 p
b0 ,"
b0 5"
b0 '"
b0 2
b0 ("
b0 9"
b11000000000100 !"
b100011 |
b100011 m
b100011 h
b1010 g
b1000 f
b1000010100000000000000000 O
b11000000001000 F
b11000000001000 L
b11000000001000 Z
b11000000001000 ]
b1000000000000000000000000000000000000000000000000000000000000000001000 s"
b1000000000000000000000000000000000000000000000000000000000000000001000 9
b0xxxxxxxxxxxxxxxxxxxxxxxxxxxxxxxx1000000000000000000000000000000000000000000000000000000000000000000000 i"
b0xxxxxxxxxxxxxxxxxxxxxxxxxxxxxxxx1000000000000000000000000000000000000000000000000000000000000000000000 1
bx00000000000000000000000000011000000010100xxxxxxxxxxxxxxxxxxxxxxxxxxxxxxxxxxxxxxxxxxxxxxxxxxxxxxxxxxxxxxxxxxxxxxxxxxxxxxxxxxxxxxxxxxxxxxxxxxxxxxxxxx ;"
bx00000000000000000000000000011000000010100xxxxxxxxxxxxxxxxxxxxxxxxxxxxxxxxxxxxxxxxxxxxxxxxxxxxxxxxxxxxxxxxxxxxxxxxxxxxxxxxxxxxxxxxxxxxxxxxxxxxxxxxxx 5
b1100000000010010001101000010100000000000000000 _
b1100000000010010001101000010100000000000000000 6
b11000000000100 X
b1010010100101100000100000 7
b1010010100101100000100000 \
b1010010100101100000100000 ^
b11000000000100 E
b11000000000100 Y
b11000000000100 [
1%
1-
#150
0%
0-
#160
b0 2"
b0 3"
b0 :"
b100100010 $"
b0 A
b0 &"
1^"
1K
b0 ]"
b0 +
b0 ["
b0 d"
b100100010 o
b100100010 /
b100100010 n
1k
1.
0i
0(
0j
0)
b1 N"
b1 ;
b1 O"
b0 I"
b0 :
b0 Y"
b1 t
b1 <
b1 z
b11000000001100 D
b11000000001100 U
b11000000001100 W
b1001010010110000010000000 J
b1001010010110000010000000 Q
b1001010010110000010000000 T
b1010 @
b1010 a"
b1010 f"
b0 >
b0 Q"
b0 Z"
b11000000001100 C
b11000000001100 N
b11000000001100 S
b1011 4"
b11000000001000 1"
b1010 7"
b1010 *"
b1 G
b1 p
b1 ,"
b1 5"
b101100000100000 '"
b10110000010000000 ""
b101100000100000 2
b101100000100000 ("
b101100000100000 9"
b11000000001000 !"
b11001000010001000 *
b11001000010001000 M
b11001000010001000 #"
b11001000010001000 c"
b0 |
b0 m
b0 h
b1010 f
b1010010100101100000100000 O
b1 g"
b10 e"
b11 h"
b0 `"
b1010 _"
b0 U"
1R"
b0 P"
b1 J"
b0 E"
b0 @"
b1010 B"
b1000 A"
1d
b0 c
b1010 e
1b
bx q"
bx o"
bx n"
bx j"
bx L"
bx G"
bx ="
bx w
bx r
bx a
0>"
b0 ?"
0."
b0 0"
b11000000001100 F
b11000000001100 L
b11000000001100 Z
b11000000001100 ]
b1100000000100000000001010010100101100000100000 _
b1100000000100000000001010010100101100000100000 6
b1000110101000000000000000000000110000000001000000000000000000000000000000000000000000000000000000000000000001000000000000000000000000000000000101000000 ;"
b1000110101000000000000000000000110000000001000000000000000000000000000000000000000000000000000000000000000001000000000000000000000000000000000101000000 5
b11000000000100xxxxxxxxxxxxxxxxxxxxxxxxxxxxxxxxxxxxxxxxxxxxxxxxxxxxxxxxxxxxxxxxxxxxxx i"
b11000000000100xxxxxxxxxxxxxxxxxxxxxxxxxxxxxxxxxxxxxxxxxxxxxxxxxxxxxxxxxxxxxxxxxxxxxx 1
b0 s"
b0 9
b11000000001000 X
b1000010000100000000100000 7
b1000010000100000000100000 \
b1000010000100000000100000 ^
b11000000001000 E
b11000000001000 Y
b11000000001000 [
1%
1-
#170
0%
0-
#180
b0 N"
b0 ;
b0 O"
b0 y
b0 =
b0 {
b0 t
b0 <
b0 z
b110 2"
b1 :"
b100100010 A
b100100010 &"
b0 I"
b0 :
b0 Y"
b10 D"
b10 4
b10 x
b10 M"
b10 C"
b10 3
b10 s
b10 H"
0k
0.
1i
1(
1j
1)
1^"
1K
b0 ]"
b0 +
b0 ["
b0 d"
bx ?
bx q
bx v
bx /"
bx F"
bx K"
bx v"
b1 0
b1 m"
b1 p"
b0 >
b0 Q"
b0 Z"
bx t"
bx ?"
bx 0"
b1010 q"
b0 o"
b11 r"
1k"
b1 n"
b0 j"
b0 L"
b0 G"
b1010 ="
1<"
b0 w
b0 r
b1010 a
1`
b0 e"
b0 h"
b1011 `"
b100000 U"
0R"
b101100000100000 P"
b1 E"
b1011 @"
b1010 A"
0d
b1011 c
0b
b0xxxxxxxxxxxxxxxxxxxxxxxxxxxxxxxxxxxxx s"
b0xxxxxxxxxxxxxxxxxxxxxxxxxxxxxxxxxxxxx 9
b11010000000000000000110010000100010001000000000000000000000000000000000000000000000000000000000000000101010 i"
b11010000000000000000110010000100010001000000000000000000000000000000000000000000000000000000000000000101010 1
b1010000000000000000000000000000110000000010000000000000000000000000000000000100000000000000000000000000000001000000000000000001011000001000000101001011 ;"
b1010000000000000000000000000000110000000010000000000000000000000000000000000100000000000000000000000000000001000000000000000001011000001000000101001011 5
1%
1-
#190
0%
0-
#200
b1 >
b1 Q"
b1 Z"
0^"
0K
b10 ]"
b10 +
b10 ["
b10 d"
b1 N"
b1 ;
b1 O"
b1 y
b1 =
b1 {
b1 I"
b1 :
b1 Y"
b1 t
b1 <
b1 z
b1 D"
b1 4
b1 x
b1 M"
b1 C"
b1 3
b1 s
b1 H"
b11000000010000 D
b11000000010000 U
b11000000010000 W
b1000010000000010000000 J
b1000010000000010000000 Q
b1000010000000010000000 T
b1011 @
b1011 a"
b1011 f"
b0 0
b0 m"
b0 p"
b1 ?
b1 q
b1 v
b1 /"
b1 F"
b1 K"
b1 v"
b11000000010000 C
b11000000010000 N
b11000000010000 S
b1000 4"
b1000 8"
b11000000001100 1"
b1000 7"
b1000 +"
b0 H
b0 u
b0 -"
b0 6"
b1000 *"
b0 G
b0 p
b0 ,"
b0 5"
b100000000100000 '"
b10000000010000000 ""
b100000000100000 2
b100000000100000 ("
b100000000100000 9"
b11000000001100 !"
b10011000010001100 *
b10011000010001100 M
b10011000010001100 #"
b10011000010001100 c"
b1000 g
b1000 f
b1000010000100000000100000 O
b1 h"
1b"
b10 S"
1d
b0 r"
0k"
0<"
0`
1w"
b1 u"
b0 t"
1>"
b1010 ?"
1."
b1010 0"
b11000000010000 F
b11000000010000 L
b11000000010000 Z
b11000000010000 ]
b1100000000110000000001000010000100000000100000 _
b1100000000110000000001000010000100000000100000 6
b1010010000110000000000000000000110000000010000000000000000000000000000000000100000000000000000000000000000001000000000000000001011000001000000101001011 ;"
b1010010000110000000000000000000110000000010000000000000000000000000000000000100000000000000000000000000000001000000000000000001011000001000000101001011 5
b110010000100010001000000000000000000000000000000000000000000000000000000000000000101010 i"
b110010000100010001000000000000000000000000000000000000000000000000000000000000000101010 1
b11000000000000000000000000000000010000000000000000000000000000000001010 s"
b11000000000000000000000000000000010000000000000000000000000000000001010 9
b11000000001100 X
b1000000000000000110000000000 7
b1000000000000000110000000000 \
b1000000000000000110000000000 ^
b11000000001100 E
b11000000001100 Y
b11000000001100 [
1%
1-
#210
0%
0-
