test2.vcd
$date
	Thu Jun 02 21:07:42 2016
$end
$version
	Icarus Verilog
$end
$timescale
	1s
$end
$scope module SL2Add $end
$var wire 26 ! in26 [25:0] $end
$var wire 4 " in4 [3:0] $end
$var wire 32 # out32 [31:0] $end
$var reg 2 $ temp [1:0] $end
$upscope $end
$scope module muxtwo_4 $end
$var wire 5 % in1 [4:0] $end
$var wire 5 & in2 [4:0] $end
$var wire 5 ' out [4:0] $end
$var wire 1 ( sl $end
$upscope $end
$scope module testBench $end
$var reg 1 ) clk $end
$var reg 1 * rst $end
$scope module cpu $end
$var wire 1 + IFIDWrite $end
$var wire 1 , PCWrite $end
$var wire 32 - addBranchOut [31:0] $end
$var wire 32 . aluResult [31:0] $end
$var wire 4 / aluctrl [3:0] $end
$var wire 1 0 clk $end
$var wire 1 1 ctrlSetZero $end
$var wire 10 2 ctrlUnitOutCode [9:0] $end
$var wire 32 3 dmOutData [31:0] $end
$var wire 107 4 exmemOut [106:0] $end
$var wire 32 5 extSign32 [31:0] $end
$var wire 2 6 forwardA [1:0] $end
$var wire 2 7 forwardB [1:0] $end
$var wire 152 8 idexOut [151:0] $end
$var wire 64 9 ifidOut [63:0] $end
$var wire 32 : imOutData [31:0] $end
$var wire 71 ; memwbOut [70:0] $end
$var wire 32 < mt1Out [31:0] $end
$var wire 32 = mt2Out [31:0] $end
$var wire 32 > mw32Out [31:0] $end
$var wire 32 ? mw32_memOut [31:0] $end
$var wire 5 @ mw5Out [4:0] $end
$var wire 9 A mw9Out [8:0] $end
$var wire 32 B pcInputAddr [31:0] $end
$var wire 32 C pcOutAddr [31:0] $end
$var wire 32 D pcPlus4 [31:0] $end
$var wire 32 E reg1Data [31:0] $end
$var wire 32 F reg2Data [31:0] $end
$var wire 1 G rst $end
$var wire 1 H zero $end
$scope module mw32_pc $end
$var wire 32 I in1 [31:0] $end
$var wire 32 J in2 [31:0] $end
$var wire 32 K out [31:0] $end
$var wire 1 L sl $end
$upscope $end
$scope module pc $end
$var wire 1 , PCWrite $end
$var wire 1 0 clk $end
$var wire 32 M inAddr [31:0] $end
$var wire 1 G rst $end
$var reg 32 N outAddr [31:0] $end
$upscope $end
$scope module add4 $end
$var wire 32 O inAddr [31:0] $end
$var wire 32 P outAddr [31:0] $end
$upscope $end
$scope module im $end
$var wire 32 Q inAddr [31:0] $end
$var wire 32 R outContent [31:0] $end
$upscope $end
$scope module ifid $end
$var wire 1 + IFIDWrite $end
$var wire 32 S addr4 [31:0] $end
$var wire 1 0 clk $end
$var wire 32 T ins [31:0] $end
$var wire 1 G rst $end
$var reg 64 U out [63:0] $end
$upscope $end
$scope module hazardCheck $end
$var wire 1 V IDEXMemRead $end
$var wire 5 W IDEXRt [4:0] $end
$var wire 5 X IFIDRs [4:0] $end
$var wire 5 Y IFIDRt [4:0] $end
$var reg 1 Z IFIDWrite $end
$var reg 1 [ PCWrite $end
$var reg 1 \ ctrlSetZero $end
$upscope $end
$scope module controlunit $end
$var wire 1 ] clk $end
$var wire 6 ^ inCode [5:0] $end
$var wire 10 _ outCode [9:0] $end
$var reg 10 ` result [9:0] $end
$upscope $end
$scope module mw9 $end
$var wire 9 a in1 [8:0] $end
$var wire 9 b in2 [8:0] $end
$var wire 9 c out [8:0] $end
$var wire 1 1 sl $end
$upscope $end
$scope module signext $end
$var wire 16 d in1 [15:0] $end
$var wire 32 e out [31:0] $end
$var wire 16 f temp [15:0] $end
$upscope $end
$scope module regHeap $end
$var wire 1 0 clk $end
$var wire 5 g readReg1 [4:0] $end
$var wire 5 h readReg2 [4:0] $end
$var wire 32 i reg1Data [31:0] $end
$var wire 32 j reg2Data [31:0] $end
$var wire 1 k regWrite $end
$var wire 32 l writeData [31:0] $end
$var wire 5 m writeReg [4:0] $end
$upscope $end
$scope module idex $end
$var wire 32 n add4 [31:0] $end
$var wire 1 0 clk $end
$var wire 4 o ex [3:0] $end
$var wire 3 p m [2:0] $end
$var wire 5 q rd [4:0] $end
$var wire 32 r readData1 [31:0] $end
$var wire 32 s readData2 [31:0] $end
$var wire 5 t rs [4:0] $end
$var wire 1 G rst $end
$var wire 5 u rt [4:0] $end
$var wire 32 v signExt [31:0] $end
$var wire 2 w wb [1:0] $end
$var reg 152 x out [151:0] $end
$upscope $end
$scope module swapUnit $end
$var wire 1 y EXMEMregWrite $end
$var wire 5 z EXMEMregisterRd [4:0] $end
$var wire 1 { MEMWBregWrite $end
$var wire 5 | MEMWBregisterRd [4:0] $end
$var wire 5 } rd [4:0] $end
$var wire 5 ~ rs [4:0] $end
$var wire 1 G rst $end
$var wire 5 !" rt [4:0] $end
$var reg 2 "" forwardA [1:0] $end
$var reg 2 #" forwardB [1:0] $end
$upscope $end
$scope module mt1 $end
$var wire 32 $" in1 [31:0] $end
$var wire 32 %" in2 [31:0] $end
$var wire 32 &" in3 [31:0] $end
$var wire 2 '" sl [1:0] $end
$var reg 32 (" out [31:0] $end
$upscope $end
$scope module mt2 $end
$var wire 32 )" in1 [31:0] $end
$var wire 32 *" in2 [31:0] $end
$var wire 32 +" in3 [31:0] $end
$var wire 2 ," sl [1:0] $end
$var reg 32 -" out [31:0] $end
$upscope $end
$scope module addBranch $end
$var wire 32 ." inAddr_add [31:0] $end
$var wire 32 /" inAddr_sl2 [31:0] $end
$var wire 32 0" outAddr [31:0] $end
$upscope $end
$scope module mw32 $end
$var wire 32 1" in1 [31:0] $end
$var wire 32 2" in2 [31:0] $end
$var wire 32 3" out [31:0] $end
$var wire 1 4" sl $end
$upscope $end
$scope module aluControl $end
$var wire 2 5" aluop [1:0] $end
$var wire 1 6" clk $end
$var wire 6 7" func [5:0] $end
$var reg 4 8" aluctrl [3:0] $end
$upscope $end
$scope module alu $end
$var wire 1 9" clk $end
$var wire 4 :" ctrl [3:0] $end
$var wire 32 ;" in1 [31:0] $end
$var wire 32 <" in2 [31:0] $end
$var wire 32 =" out [31:0] $end
$var reg 32 >" result [31:0] $end
$var reg 1 ?" zero $end
$upscope $end
$scope module mw5 $end
$var wire 5 @" in1 [4:0] $end
$var wire 5 A" in2 [4:0] $end
$var wire 5 B" out [4:0] $end
$var wire 1 C" sl $end
$upscope $end
$scope module exmem $end
$var wire 32 D" addBranch [31:0] $end
$var wire 32 E" aluResult [31:0] $end
$var wire 1 H aluZero $end
$var wire 1 0 clk $end
$var wire 3 F" m [2:0] $end
$var wire 5 G" mw5Out [4:0] $end
$var wire 32 H" readData2 [31:0] $end
$var wire 1 G rst $end
$var wire 2 I" wb [1:0] $end
$var reg 107 J" out [106:0] $end
$upscope $end
$scope module dm $end
$var wire 1 0 clk $end
$var wire 32 K" inAddr [31:0] $end
$var wire 1 L" memRead $end
$var wire 1 M" memWrite $end
$var wire 32 N" outData [31:0] $end
$var wire 32 O" writeData [31:0] $end
$upscope $end
$scope module memwb $end
$var wire 32 P" aluResult [31:0] $end
$var wire 1 0 clk $end
$var wire 32 Q" readData [31:0] $end
$var wire 1 G rst $end
$var wire 5 R" rtd [4:0] $end
$var wire 2 S" wb [1:0] $end
$var reg 71 T" out [70:0] $end
$upscope $end
$scope module mw32_mem $end
$var wire 32 U" in1 [31:0] $end
$var wire 32 V" in2 [31:0] $end
$var wire 32 W" out [31:0] $end
$var wire 1 X" sl $end
$upscope $end
$upscope $end
$upscope $end
$enddefinitions $end
#0
$dumpvars
0X"
b0 W"
b0 V"
b0 U"
b0 T"
b0 S"
b0 R"
b0 Q"
b0 P"
b0 O"
b0 N"
0M"
0L"
b0 K"
b0 J"
b0 I"
b0 H"
b0 G"
b0 F"
b0 E"
b0 D"
0C"
b0 B"
b0 A"
b0 @"
1?"
b0 >"
b0 ="
b0 <"
b0 ;"
b10 :"
z9"
b10 8"
b0 7"
z6"
b0 5"
04"
b0 3"
b0 2"
b0 1"
b0 0"
b0 /"
b0 ."
b0 -"
b0 ,"
b0 +"
b0 *"
b0 )"
b0 ("
b0 '"
b0 &"
b0 %"
b0 $"
b0 #"
b0 ""
b0 !"
b0 ~
b0 }
b0 |
0{
b0 z
0y
b0 x
b1 w
b0 v
b0 u
b0 t
b0 s
b0 r
b0 q
b0 p
b110 o
b0 n
b0 m
b0 l
0k
b0 j
b0 i
b0 h
b0 g
b0 f
b0 e
b0 d
b100100010 c
b0 b
b100100010 a
b100100010 `
b100100010 _
b0 ^
z]
0\
1[
1Z
b0 Y
b0 X
b0 W
0V
b0 U
b10001101000010010000000000000100 T
b11000000000100 S
b10001101000010010000000000000100 R
b11000000000000 Q
b11000000000100 P
b11000000000000 O
b11000000000000 N
b11000000000100 M
0L
b11000000000100 K
b0 J
b11000000000100 I
1H
1G
b0 F
b0 E
b11000000000100 D
b11000000000000 C
b11000000000100 B
b100100010 A
b0 @
b0 ?
b0 >
b0 =
b0 <
b0 ;
b10001101000010010000000000000100 :
b0 9
b0 8
b0 7
b0 6
b0 5
b0 4
b0 3
b100100010 2
01
10
b10 /
b0 .
b0 -
1,
1+
1*
1)
z(
bz '
bz &
bz %
b0 $
b0zzzzzzzzzzzzzzzzzzzzzzzzzzzz00 #
bz "
bz !
$end
#10
0)
00
#20
b1000 o
b10 p
b11110000 A
b11110000 c
b11000000001000 B
b11000000001000 K
b11000000001000 M
b11 w
b11110000 a
b11000000001000 D
b11000000001000 I
b11000000001000 P
b11000000001000 S
b11110000 `
b11110000 2
b11110000 _
b0 8"
b0 /
b0 :"
b11000000000100 N
b10001101000010100000000000000000 :
b10001101000010100000000000000000 R
b10001101000010100000000000000000 T
b11000000000100 C
b11000000000100 O
b11000000000100 Q
b1001 u
b11000000000100 n
b1000 t
b1001 h
b1000 g
b100 d
b100 5
b100 e
b100 v
b100011 ^
b1001 Y
b1000 X
b1 I"
1C"
b10 5"
b1100000000010010001101000010010000000000000100 U
b1100000000010010001101000010010000000000000100 9
b10000110000000000000000000000000000000000000000000000000000000000000000000000000000000000000000000000000000000000000000000000000000000000000000000 x
b10000110000000000000000000000000000000000000000000000000000000000000000000000000000000000000000000000000000000000000000000000000000000000000000000 8
b1000000000000000000000000000000000000000000000000000000000000000000000 J"
b1000000000000000000000000000000000000000000000000000000000000000000000 4
1)
10
0*
0G
#30
0)
00
#40
0?"
0H
b100 >"
b100 .
b100 ="
b100 E"
b10 8"
b10 /
b10 :"
b1001 @
b1001 B"
b1001 G"
b100 >
b100 3"
b100 <"
b11000000001100 B
b11000000001100 K
b11000000001100 M
b1010 u
b11000000001000 n
b1010 h
b0 d
b0 5
b0 e
b0 v
b1010 Y
b10 F"
b11 I"
0C"
b1001 @"
b0 5"
b100 7"
14"
b100 2"
b10000 /"
b11000000000100 ."
b11000000010100 -
b11000000010100 0"
b11000000010100 D"
b1001 !"
b1000 ~
b1001 W
1V
b1 S"
1y
b11000000001100 D
b11000000001100 I
b11000000001100 P
b11000000001100 S
b1100000000100010001101000010100000000000000000 U
b1100000000100010001101000010100000000000000000 9
b1000110101000000000000000000000110000000001000000000000000000000000000000000000000000000000000000000000000000000000000000000000000000000001000100100000 x
b1000110101000000000000000000000110000000001000000000000000000000000000000000000000000000000000000000000000000000000000000000000000000000001000100100000 8
b1000000000000000000000000000000000001000000000000000000000000000000000000000000000000000000000000000000000 J"
b1000000000000000000000000000000000001000000000000000000000000000000000000000000000000000000000000000000000 4
b11000000001000 N
b1001010100101100000100000 :
b1001010100101100000100000 R
b1001010100101100000100000 T
b11000000001000 C
b11000000001000 O
b11000000001000 Q
1)
10
#50
0)
00
#60
b0 o
b0 p
b0 w
b100100010 a
b0 A
b0 c
b100100010 `
b100100010 2
b100100010 _
1\
11
0Z
0+
0[
0,
1?"
1H
b0 >"
b0 .
b0 ="
b0 E"
b10 3
b10 N"
b10 Q"
b1010 @
b1010 B"
b1010 G"
b0 >
b0 3"
b0 <"
b11000000010000 B
b11000000010000 K
b11000000010000 M
1{
1k
b1001 R"
b100 P"
b11 S"
1L"
b100 K"
b100 +"
b100 &"
b1001 z
b11000000010100 J
b1010 @"
b0 7"
b0 2"
b0 /"
b11000000001000 ."
b11000000001000 -
b11000000001000 0"
b11000000001000 D"
b1010 !"
b1010 W
b1011 q
b11000000001100 n
b1001 t
b1001 g
b101100000100000 d
b101100000100000 5
b101100000100000 e
b101100000100000 v
b0 ^
b1001 X
b11000000010000 D
b11000000010000 I
b11000000010000 P
b11000000010000 S
b1000000000000000000000000000000000000000000000000000000000000000000000 T"
b1000000000000000000000000000000000000000000000000000000000000000000000 ;
b11010000000000000000000110000000101000000000000000000000000000000001000000000000000000000000000000000001001 J"
b11010000000000000000000110000000101000000000000000000000000000000001000000000000000000000000000000000001001 4
b1000110101000000000000000000000110000000010000000000000000000000000000000000000000000000000000000000000000000000000000000000000000000000000000101000000 x
b1000110101000000000000000000000110000000010000000000000000000000000000000000000000000000000000000000000000000000000000000000000000000000000000101000000 8
b1100000000110000000001001010100101100000100000 U
b1100000000110000000001001010100101100000100000 9
b11000000001100 N
b1011010010110000000100000 :
b1011010010110000000100000 R
b1011010010110000000100000 T
b11000000001100 C
b11000000001100 O
b11000000001100 Q
1)
10
#70
0)
00
#80
0?"
0H
b10 >"
b10 .
b10 ="
b10 E"
b10 ("
b10 <
b10 ;"
b110 o
b1 w
b100100010 A
b100100010 c
b10 E
b10 i
b10 r
0\
01
1Z
1+
1[
1,
b10 #"
b10 7
b10 ,"
b1 ""
b1 6
b1 '"
b1 3
b1 N"
b1 Q"
b10 ?
b10 l
b10 %"
b10 *"
b10 W"
b0 F"
b0 I"
b1011 A"
b100000 7"
04"
b101100000100000 2"
b10110000010000000 /"
b11000000001100 ."
b11001000010001100 -
b11001000010001100 0"
b11001000010001100 D"
b1011 }
b1001 ~
0V
b1010 R"
b0 P"
b0 K"
b0 +"
b0 &"
b1010 z
b11000000001000 J
1X"
b10 V"
b100 U"
b1001 |
b1001 m
b1001000000000000000000000000000110000000011000000000000000000000000000000000000000000000000000000000000000000000000000000000001011000001000000101001011 x
b1001000000000000000000000000000110000000011000000000000000000000000000000000000000000000000000000000000000000000000000000000001011000001000000101001011 8
b11010000000000000000000110000000010001000000000000000000000000000000000000000000000000000000000000000001010 J"
b11010000000000000000000110000000010001000000000000000000000000000000000000000000000000000000000000000001010 4
b11000000000000000000000000000000100000000000000000000000000000010001001 T"
b11000000000000000000000000000000100000000000000000000000000000010001001 ;
1)
10
#90
0)
00
#100
b11 >"
b11 .
b11 ="
b11 E"
b1 >
b1 3"
b1 <"
b10 ("
b10 <
b10 ;"
b1 -"
b1 =
b1 1"
b1 #"
b1 7
b1 ,"
b0 ""
b0 6
b0 '"
b1 ?
b1 l
b1 %"
b1 *"
b1 W"
b0 3
b0 N"
b0 Q"
b1011 @
b1011 B"
b1011 G"
b11000000010100 B
b11000000010100 K
b11000000010100 M
b1 V"
b0 U"
b1010 |
b1010 m
b10 P"
b0 S"
0L"
b10 K"
b10 +"
b10 &"
0y
b11001000010001100 J
b1 I"
1C"
b10 5"
b10 $"
b1100 q
b1001 u
b11000000010000 n
b1011 t
b1001 h
b10 F
b10 j
b10 s
b1011 g
b0 E
b0 i
b0 r
b110000000100000 d
b110000000100000 5
b110000000100000 e
b110000000100000 v
b1001 Y
b1011 X
b11000000010100 D
b11000000010100 I
b11000000010100 P
b11000000010100 S
b11000000000000000000000000000000010000000000000000000000000000000001010 T"
b11000000000000000000000000000000010000000000000000000000000000000001010 ;
b110010000100011000000000000000000000000000000000100000000000000000000000000000000001010 J"
b110010000100011000000000000000000000000000000000100000000000000000000000000000000001010 4
b1001010000110000000000000000000110000000011000000000000000000000000000000001000000000000000000000000000000000000000000000000001011000001000000101001011 x
b1001010000110000000000000000000110000000011000000000000000000000000000000001000000000000000000000000000000000000000000000000001011000001000000101001011 8
b1100000001000000000001011010010110000000100000 U
b1100000001000000000001011010010110000000100000 9
b11000000010000 N
b1011010100110100000100000 :
b1011010100110100000100000 R
b1011010100110100000100000 T
b11000000010000 C
b11000000010000 O
b11000000010000 Q
1)
10
#110
0)
00
#120
b10 >
b10 3"
b10 <"
b101 >"
b101 .
b101 ="
b101 E"
b10 -"
b10 =
b10 1"
b11 ("
b11 <
b11 ;"
b0 #"
b0 7
b0 ,"
b10 ""
b10 6
b10 '"
b1100 @
b1100 B"
b1100 G"
b10 ?
b10 l
b10 %"
b10 *"
b10 W"
b11000000011000 B
b11000000011000 K
b11000000011000 M
b1101 q
b1010 u
b11000000010100 n
b1010 h
b1 F
b1 j
b1 s
b110100000100000 d
b110100000100000 5
b110100000100000 e
b110100000100000 v
b1010 Y
b10 H"
b1100 A"
b1001 @"
b110000000100000 2"
b11000000010000000 /"
b11000000010000 ."
b11011000010010000 -
b11011000010010000 0"
b11011000010010000 D"
b10 )"
b0 $"
b1100 }
b1001 !"
b1011 ~
b1001 W
b1011 R"
b11 P"
b1 S"
b11 K"
b11 +"
b11 &"
b1011 z
1y
0X"
b0 V"
b10 U"
0{
0k
b11000000011000 D
b11000000011000 I
b11000000011000 P
b11000000011000 S
b1100000001010000000001011010100110100000100000 U
b1100000001010000000001011010100110100000100000 9
b1011010000110000000000000000000110000000100000000000000000000000000000000000000000000000000000000000000000010000000000000000001100000001000000100101100 x
b1011010000110000000000000000000110000000100000000000000000000000000000000000000000000000000000000000000000010000000000000000001100000001000000100101100 8
b1000000000000000000110010000100011000000000000000000000000000000000110000000000000000000000000000000001011 J"
b1000000000000000000110010000100011000000000000000000000000000000000110000000000000000000000000000000001011 4
b1001010 T"
b1001010 ;
b11000000010100 N
b1001011010111000000100000 :
b1001011010111000000100000 R
b1001011010111000000100000 T
b11000000010100 C
b11000000010100 O
b11000000010100 Q
1)
10
#130
0)
00
#140
b100 >"
b100 .
b100 ="
b100 E"
b1 >
b1 3"
b1 <"
b11 ("
b11 <
b11 ;"
b1 -"
b1 =
b1 1"
b1 ""
b1 6
b1 '"
b11 ?
b11 l
b11 %"
b11 *"
b11 W"
b1101 @
b1101 B"
b1101 G"
b11000000011100 B
b11000000011100 K
b11000000011100 M
b11 U"
1{
b1011 |
1k
b1011 m
b1100 R"
b101 P"
b10 O"
b101 K"
b101 +"
b101 &"
b1100 z
b11011000010010000 J
b1 H"
b1101 A"
b1010 @"
b110100000100000 2"
b11010000010000000 /"
b11000000010100 ."
b11101000010010100 -
b11101000010010100 0"
b11101000010010100 D"
b1 )"
b1101 }
b1010 !"
b1010 W
b1110 q
b1101 u
b11000000011000 n
b1001 t
b1101 h
b0 F
b0 j
b0 s
b1001 g
b10 E
b10 i
b10 r
b111000000100000 d
b111000000100000 5
b111000000100000 e
b111000000100000 v
b1101 Y
b1001 X
b11000000011100 D
b11000000011100 I
b11000000011100 P
b11000000011100 S
b1000000000000000000000000000000000000000000000000000000000000001101011 T"
b1000000000000000000000000000000000000000000000000000000000000001101011 ;
b1000000000000000000110110000100100000000000000000000000000000000001010000000000000000000000000000001001100 J"
b1000000000000000000110110000100100000000000000000000000000000000001010000000000000000000000000000001001100 4
b1011010000110000000000000000000110000000101000000000000000000000000000000000000000000000000000000000000000001000000000000000001101000001000000101001101 x
b1011010000110000000000000000000110000000101000000000000000000000000000000000000000000000000000000000000000001000000000000000001101000001000000101001101 8
b1100000001100000000001001011010111000000100000 U
b1100000001100000000001001011010111000000100000 9
b11000000011000 N
b1010011010111100000100000 :
b1010011010111100000100000 R
b1010011010111100000100000 T
b11000000011000 C
b11000000011000 O
b11000000011000 Q
1)
10
#150
0)
00
#160
b100 >
b100 3"
b100 <"
b110 >"
b110 .
b110 ="
b110 E"
b100 -"
b100 =
b100 1"
b10 ("
b10 <
b10 ;"
b10 #"
b10 7
b10 ,"
b0 ""
b0 6
b0 '"
b1110 @
b1110 B"
b1110 G"
b101 ?
b101 l
b101 %"
b101 *"
b101 W"
b11000000100000 B
b11000000100000 K
b11000000100000 M
b1111 q
b11000000011100 n
b1010 t
b1010 g
b1 E
b1 i
b1 r
b111100000100000 d
b111100000100000 5
b111100000100000 e
b111100000100000 v
b1010 X
b0 H"
b1110 A"
b1101 @"
b111000000100000 2"
b11100000010000000 /"
b11000000011000 ."
b11111000010011000 -
b11111000010011000 0"
b11111000010011000 D"
b0 )"
b10 $"
b1110 }
b1101 !"
b1001 ~
b1101 W
b1101 R"
b100 P"
b1 O"
b100 K"
b100 +"
b100 &"
b1101 z
b11101000010010100 J
b101 U"
b1100 |
b1100 m
b11000000100000 D
b11000000100000 I
b11000000100000 P
b11000000100000 S
b1100000001110000000001010011010111100000100000 U
b1100000001110000000001010011010111100000100000 9
b1001010000110000000000000000000110000000110000000000000000000000000000000001000000000000000000000000000000000000000000000000001110000001000000110101110 x
b1001010000110000000000000000000110000000110000000000000000000000000000000001000000000000000000000000000000000000000000000000001110000001000000110101110 8
b1000000000000000000111010000100101000000000000000000000000000000001000000000000000000000000000000000101101 J"
b1000000000000000000111010000100101000000000000000000000000000000001000000000000000000000000000000000101101 4
b1000000000000000000000000000000000000000000000000000000000000010101100 T"
b1000000000000000000000000000000000000000000000000000000000000010101100 ;
b11000000011100 N
b1111010100111100000100000 :
b1111010100111100000100000 R
b1111010100111100000100000 T
b11000000011100 C
b11000000011100 O
b11000000011100 Q
1)
10
#170
0)
00
#180
b100 >
b100 3"
b100 <"
b101 >"
b101 .
b101 ="
b101 E"
b100 -"
b100 =
b100 1"
b1 ("
b1 <
b1 ;"
b1 #"
b1 7
b1 ,"
b100 ?
b100 l
b100 %"
b100 *"
b100 W"
b1111 @
b1111 B"
b1111 G"
b11000000100100 B
b11000000100100 K
b11000000100100 M
b100 U"
b1101 |
b1101 m
b1110 R"
b110 P"
b0 O"
b110 K"
b110 +"
b110 &"
b1110 z
b11111000010011000 J
b1111 A"
b111100000100000 2"
b11110000010000000 /"
b11000000011100 ."
b100001000010011100 -
b100001000010011100 0"
b100001000010011100 D"
b1 $"
b1111 }
b1010 ~
b1010 u
b11000000100000 n
b1111 t
b1010 h
b1 F
b1 j
b1 s
b1111 g
b0 E
b0 i
b0 r
b1010 Y
b1111 X
b11000000100100 D
b11000000100100 I
b11000000100100 P
b11000000100100 S
b1000000000000000000000000000000000000000000000000000000000000010001101 T"
b1000000000000000000000000000000000000000000000000000000000000010001101 ;
b1000000000000000000111110000100110000000000000000000000000000000001100000000000000000000000000000000001110 J"
b1000000000000000000111110000100110000000000000000000000000000000001100000000000000000000000000000000001110 4
b1010010000110000000000000000000110000000111000000000000000000000000000000000100000000000000000000000000000000000000000000000001111000001000000110101111 x
b1010010000110000000000000000000110000000111000000000000000000000000000000000100000000000000000000000000000000000000000000000001111000001000000110101111 8
b1100000010000000000001111010100111100000100000 U
b1100000010000000000001111010100111100000100000 9
b11000000100000 N
b11000000100000 C
b11000000100000 O
b11000000100000 Q
1)
10
#190
0)
00
#200
b1 >
b1 3"
b1 <"
b110 >"
b110 .
b110 ="
b110 E"
b1 -"
b1 =
b1 1"
b101 ("
b101 <
b101 ;"
b0 #"
b0 7
b0 ,"
b10 ""
b10 6
b10 '"
b110 ?
b110 l
b110 %"
b110 *"
b110 W"
b11000000101000 B
b11000000101000 K
b11000000101000 M
b11000000100100 n
b1 H"
b1010 @"
b11000000100000 ."
b100001000010100000 -
b100001000010100000 0"
b100001000010100000 D"
b1 )"
b0 $"
b1010 !"
b1111 ~
b1010 W
b1111 R"
b101 P"
b101 K"
b101 +"
b101 &"
b1111 z
b100001000010011100 J
b110 U"
b1110 |
b1110 m
b11000000101000 D
b11000000101000 I
b11000000101000 P
b11000000101000 S
b1100000010010000000001111010100111100000100000 U
b1100000010010000000001111010100111100000100000 9
b1111010000110000000000000000000110000001000000000000000000000000000000000000000000000000000000000000000000001000000000000000001111000001000000101001111 x
b1111010000110000000000000000000110000001000000000000000000000000000000000000000000000000000000000000000000001000000000000000001111000001000000101001111 8
b1000000000000000001000010000100111000000000000000000000000000000001010000000000000000000000000000000001111 J"
b1000000000000000001000010000100111000000000000000000000000000000001010000000000000000000000000000000001111 4
b1000000000000000000000000000000000000000000000000000000000000011001110 T"
b1000000000000000000000000000000000000000000000000000000000000011001110 ;
b11000000100100 N
bx :
bx R
bx T
b11000000100100 C
b11000000100100 O
b11000000100100 Q
1)
10
#210
0)
00
#220
b0 o
b0 w
b0 A
b0 c
b111 >"
b111 .
b111 ="
b111 E"
b0 a
b110 ("
b110 <
b110 ;"
b0 `
b0 2
b0 _
bx f
b101 ?
b101 l
b101 %"
b101 *"
b101 W"
b11000000101100 B
b11000000101100 K
b11000000101100 M
b101 U"
b1111 |
b1111 m
b110 P"
b1 O"
b110 K"
b110 +"
b110 &"
b100001000010100000 J
b11000000100100 ."
b100001000010100100 -
b100001000010100100 0"
b100001000010100100 D"
bx q
bx u
b11000000101000 n
bx t
bx h
bx F
bx j
bx s
bx g
bx E
bx i
bx r
bx d
bx 5
bx e
bx v
bx ^
bx Y
bx X
b11000000101100 D
b11000000101100 I
b11000000101100 P
b11000000101100 S
b1000000000000000000000000000000000000000000000000000000000000010101111 T"
b1000000000000000000000000000000000000000000000000000000000000010101111 ;
b1000000000000000001000010000101000000000000000000000000000000000001100000000000000000000000000000000101111 J"
b1000000000000000001000010000101000000000000000000000000000000000001100000000000000000000000000000000101111 4
b1111010000110000000000000000000110000001001000000000000000000000000000000000000000000000000000000000000000001000000000000000001111000001000000101001111 x
b1111010000110000000000000000000110000001001000000000000000000000000000000000000000000000000000000000000000001000000000000000001111000001000000101001111 8
b11000000101000xxxxxxxxxxxxxxxxxxxxxxxxxxxxxxxx U
b11000000101000xxxxxxxxxxxxxxxxxxxxxxxxxxxxxxxx 9
b11000000101000 N
b11000000101000 C
b11000000101000 O
b11000000101000 Q
1)
10
#230
0)
00
#240
x?"
xH
bx >
bx 3"
bx <"
bx >"
bx .
bx ="
bx E"
b0 ""
b0 6
b0 '"
bx -"
bx =
bx 1"
bx ("
bx <
bx ;"
bx @
bx B"
bx G"
b110 ?
b110 l
b110 %"
b110 *"
b110 W"
b11000000110000 B
b11000000110000 K
b11000000110000 M
b11000000101100 n
bx H"
b0 I"
0C"
bx A"
bx @"
b0 5"
bx 7"
bx 2"
bx /"
b11000000101000 ."
bx -
bx 0"
bx D"
bx )"
bx $"
bx }
bx !"
bx ~
bx W
b111 P"
b111 K"
b111 +"
b111 &"
b100001000010100100 J
b110 U"
b11000000110000 D
b11000000110000 I
b11000000110000 P
b11000000110000 S
b11000000101100xxxxxxxxxxxxxxxxxxxxxxxxxxxxxxxx U
b11000000101100xxxxxxxxxxxxxxxxxxxxxxxxxxxxxxxx 9
bx00000000000000000000000000011000000101000xxxxxxxxxxxxxxxxxxxxxxxxxxxxxxxxxxxxxxxxxxxxxxxxxxxxxxxxxxxxxxxxxxxxxxxxxxxxxxxxxxxxxxxxxxxxxxxxxxxxxxxxxx x
bx00000000000000000000000000011000000101000xxxxxxxxxxxxxxxxxxxxxxxxxxxxxxxxxxxxxxxxxxxxxxxxxxxxxxxxxxxxxxxxxxxxxxxxxxxxxxxxxxxxxxxxxxxxxxxxxxxxxxxxxx 8
b1000000000000000001000010000101001000000000000000000000000000000001110000000000000000000000000000000101111 J"
b1000000000000000001000010000101001000000000000000000000000000000001110000000000000000000000000000000101111 4
b1000000000000000000000000000000000000000000000000000000000000011001111 T"
b1000000000000000000000000000000000000000000000000000000000000011001111 ;
b11000000101100 N
b11000000101100 C
b11000000101100 O
b11000000101100 Q
1)
10
#250
0)
00
#260
b111 ?
b111 l
b111 %"
b111 *"
b111 W"
b11000000110100 B
b11000000110100 K
b11000000110100 M
b111 U"
bx R"
bx P"
b0 S"
bx O"
bx K"
bx +"
bx &"
bx z
0y
bx J
b11000000101100 ."
b11000000110000 n
b11000000110100 D
b11000000110100 I
b11000000110100 P
b11000000110100 S
b1000000000000000000000000000000000000000000000000000000000000011101111 T"
b1000000000000000000000000000000000000000000000000000000000000011101111 ;
b0xxxxxxxxxxxxxxxxxxxxxxxxxxxxxxxxxxxxxxxxxxxxxxxxxxxxxxxxxxxxxxxxxxxxxxxxxxxxxxxxxxxxxxxxxxxxxxxxxxxxxx J"
b0xxxxxxxxxxxxxxxxxxxxxxxxxxxxxxxxxxxxxxxxxxxxxxxxxxxxxxxxxxxxxxxxxxxxxxxxxxxxxxxxxxxxxxxxxxxxxxxxxxxxxx 4
bx00000000000000000000000000011000000101100xxxxxxxxxxxxxxxxxxxxxxxxxxxxxxxxxxxxxxxxxxxxxxxxxxxxxxxxxxxxxxxxxxxxxxxxxxxxxxxxxxxxxxxxxxxxxxxxxxxxxxxxxx x
bx00000000000000000000000000011000000101100xxxxxxxxxxxxxxxxxxxxxxxxxxxxxxxxxxxxxxxxxxxxxxxxxxxxxxxxxxxxxxxxxxxxxxxxxxxxxxxxxxxxxxxxxxxxxxxxxxxxxxxxxx 8
b11000000110000xxxxxxxxxxxxxxxxxxxxxxxxxxxxxxxx U
b11000000110000xxxxxxxxxxxxxxxxxxxxxxxxxxxxxxxx 9
b11000000110000 N
b11000000110000 C
b11000000110000 O
b11000000110000 Q
1)
10
#270
0)
00
