test2.vcd
$date
	Sun Jun 05 21:59:14 2016
$end
$version
	Icarus Verilog
$end
$timescale
	1s
$end
$scope module SL2Add $end
$var wire 26 ! in26 [25:0] $end
$var wire 4 " in4 [3:0] $end
$var wire 32 # out32 [31:0] $end
$var reg 2 $ temp [1:0] $end
$upscope $end
$scope module muxtwo_4 $end
$var wire 5 % in1 [4:0] $end
$var wire 5 & in2 [4:0] $end
$var wire 5 ' out [4:0] $end
$var wire 1 ( sl $end
$upscope $end
$scope module testBench $end
$var reg 1 ) clk $end
$var reg 1 * rst $end
$scope module cpu $end
$var wire 1 + IFFlush $end
$var wire 1 , IFIDWrite $end
$var wire 1 - PCWrite $end
$var wire 32 . addBranchOut [31:0] $end
$var wire 32 / aluResult [31:0] $end
$var wire 4 0 aluctrl [3:0] $end
$var wire 1 1 clk $end
$var wire 1 2 ctrlSetZero $end
$var wire 10 3 ctrlUnitOutCode [9:0] $end
$var wire 32 4 dmOutData [31:0] $end
$var wire 107 5 exmemOut [106:0] $end
$var wire 32 6 extSign32 [31:0] $end
$var wire 2 7 forwardA [1:0] $end
$var wire 2 8 forwardB [1:0] $end
$var wire 152 9 idexOut [151:0] $end
$var wire 64 : ifidOut [63:0] $end
$var wire 32 ; imOutData [31:0] $end
$var wire 1 < isBranchOut $end
$var wire 71 = memwbOut [70:0] $end
$var wire 32 > mt1Out [31:0] $end
$var wire 32 ? mt2Out [31:0] $end
$var wire 32 @ mt3Out [31:0] $end
$var wire 32 A mt4Out [31:0] $end
$var wire 32 B mw32Out [31:0] $end
$var wire 32 C mw32_memOut [31:0] $end
$var wire 5 D mw5Out [4:0] $end
$var wire 9 E mw9Out [8:0] $end
$var wire 32 F pcInputAddr [31:0] $end
$var wire 32 G pcOutAddr [31:0] $end
$var wire 32 H pcPlus4 [31:0] $end
$var wire 32 I reg1Data [31:0] $end
$var wire 32 J reg2Data [31:0] $end
$var wire 1 K rst $end
$var wire 1 L zero $end
$scope module mw32_pc $end
$var wire 32 M in1 [31:0] $end
$var wire 32 N in2 [31:0] $end
$var wire 32 O out [31:0] $end
$var wire 1 < sl $end
$upscope $end
$scope module pc $end
$var wire 1 - PCWrite $end
$var wire 1 1 clk $end
$var wire 32 P inAddr [31:0] $end
$var wire 1 K rst $end
$var reg 32 Q outAddr [31:0] $end
$upscope $end
$scope module add4 $end
$var wire 32 R inAddr [31:0] $end
$var wire 32 S outAddr [31:0] $end
$upscope $end
$scope module im $end
$var wire 32 T inAddr [31:0] $end
$var wire 32 U outContent [31:0] $end
$upscope $end
$scope module ifid $end
$var wire 1 + IFFlush $end
$var wire 1 , IFIDWrite $end
$var wire 32 V addr4 [31:0] $end
$var wire 1 1 clk $end
$var wire 32 W ins [31:0] $end
$var wire 1 K rst $end
$var reg 64 X out [63:0] $end
$upscope $end
$scope module hazardCheck $end
$var wire 1 Y EXMEMRead $end
$var wire 5 Z EXMEMRt [4:0] $end
$var wire 1 [ IDEXMemRead $end
$var wire 5 \ IDEXRd [4:0] $end
$var wire 1 ] IDEXRegWrite $end
$var wire 5 ^ IDEXRt [4:0] $end
$var wire 5 _ IFIDRs [4:0] $end
$var wire 5 ` IFIDRt [4:0] $end
$var wire 1 1 clk $end
$var wire 6 a opcode [5:0] $end
$var reg 1 b IFIDWrite $end
$var reg 1 c PCWrite $end
$var reg 1 d ctrlSetZero $end
$upscope $end
$scope module controlunit $end
$var wire 1 e clk $end
$var wire 6 f inCode [5:0] $end
$var wire 10 g outCode [9:0] $end
$var reg 10 h result [9:0] $end
$upscope $end
$scope module mt3 $end
$var wire 32 i in1 [31:0] $end
$var wire 32 j in2 [31:0] $end
$var wire 32 k in3 [31:0] $end
$var wire 2 l sl [1:0] $end
$var reg 32 m out [31:0] $end
$upscope $end
$scope module mt4 $end
$var wire 32 n in1 [31:0] $end
$var wire 32 o in2 [31:0] $end
$var wire 32 p in3 [31:0] $end
$var wire 2 q sl [1:0] $end
$var reg 32 r out [31:0] $end
$upscope $end
$scope module isBranch $end
$var wire 32 s in1 [31:0] $end
$var wire 32 t in2 [31:0] $end
$var wire 6 u opcode [5:0] $end
$var reg 1 v IFFlush $end
$var reg 1 w out $end
$upscope $end
$scope module addBranch $end
$var wire 32 x inAddr_add [31:0] $end
$var wire 32 y inAddr_sl2 [31:0] $end
$var wire 32 z outAddr [31:0] $end
$upscope $end
$scope module mw9 $end
$var wire 9 { in1 [8:0] $end
$var wire 9 | in2 [8:0] $end
$var wire 9 } out [8:0] $end
$var wire 1 2 sl $end
$upscope $end
$scope module signext $end
$var wire 16 ~ in1 [15:0] $end
$var wire 32 !" out [31:0] $end
$var wire 16 "" temp [15:0] $end
$upscope $end
$scope module regHeap $end
$var wire 1 1 clk $end
$var wire 5 #" readReg1 [4:0] $end
$var wire 5 $" readReg2 [4:0] $end
$var wire 32 %" reg1Data [31:0] $end
$var wire 32 &" reg2Data [31:0] $end
$var wire 1 '" regWrite $end
$var wire 32 (" writeData [31:0] $end
$var wire 5 )" writeReg [4:0] $end
$upscope $end
$scope module idex $end
$var wire 32 *" add4 [31:0] $end
$var wire 1 1 clk $end
$var wire 4 +" ex [3:0] $end
$var wire 3 ," m [2:0] $end
$var wire 5 -" rd [4:0] $end
$var wire 32 ." readData1 [31:0] $end
$var wire 32 /" readData2 [31:0] $end
$var wire 5 0" rs [4:0] $end
$var wire 1 K rst $end
$var wire 5 1" rt [4:0] $end
$var wire 32 2" signExt [31:0] $end
$var wire 2 3" wb [1:0] $end
$var reg 152 4" out [151:0] $end
$upscope $end
$scope module swapUnit $end
$var wire 1 5" EXMEMregWrite $end
$var wire 5 6" EXMEMregisterRd [4:0] $end
$var wire 1 7" MEMWBregWrite $end
$var wire 5 8" MEMWBregisterRd [4:0] $end
$var wire 5 9" rd [4:0] $end
$var wire 5 :" rs [4:0] $end
$var wire 1 K rst $end
$var wire 5 ;" rt [4:0] $end
$var reg 2 <" forwardA [1:0] $end
$var reg 2 =" forwardB [1:0] $end
$upscope $end
$scope module mt1 $end
$var wire 32 >" in1 [31:0] $end
$var wire 32 ?" in2 [31:0] $end
$var wire 32 @" in3 [31:0] $end
$var wire 2 A" sl [1:0] $end
$var reg 32 B" out [31:0] $end
$upscope $end
$scope module mt2 $end
$var wire 32 C" in1 [31:0] $end
$var wire 32 D" in2 [31:0] $end
$var wire 32 E" in3 [31:0] $end
$var wire 2 F" sl [1:0] $end
$var reg 32 G" out [31:0] $end
$upscope $end
$scope module mw32 $end
$var wire 32 H" in1 [31:0] $end
$var wire 32 I" in2 [31:0] $end
$var wire 32 J" out [31:0] $end
$var wire 1 K" sl $end
$upscope $end
$scope module aluControl $end
$var wire 2 L" aluop [1:0] $end
$var wire 1 M" clk $end
$var wire 6 N" func [5:0] $end
$var reg 4 O" aluctrl [3:0] $end
$upscope $end
$scope module alu $end
$var wire 1 P" clk $end
$var wire 4 Q" ctrl [3:0] $end
$var wire 32 R" in1 [31:0] $end
$var wire 32 S" in2 [31:0] $end
$var wire 32 T" out [31:0] $end
$var reg 32 U" result [31:0] $end
$var reg 1 V" zero $end
$upscope $end
$scope module mw5 $end
$var wire 5 W" in1 [4:0] $end
$var wire 5 X" in2 [4:0] $end
$var wire 5 Y" out [4:0] $end
$var wire 1 Z" sl $end
$upscope $end
$scope module exmem $end
$var wire 32 [" addBranch [31:0] $end
$var wire 32 \" aluResult [31:0] $end
$var wire 1 L aluZero $end
$var wire 1 1 clk $end
$var wire 3 ]" m [2:0] $end
$var wire 5 ^" mw5Out [4:0] $end
$var wire 32 _" readData2 [31:0] $end
$var wire 1 K rst $end
$var wire 2 `" wb [1:0] $end
$var reg 107 a" out [106:0] $end
$upscope $end
$scope module dm $end
$var wire 1 1 clk $end
$var wire 32 b" inAddr [31:0] $end
$var wire 1 c" memRead $end
$var wire 1 d" memWrite $end
$var wire 32 e" outData [31:0] $end
$var wire 32 f" writeData [31:0] $end
$upscope $end
$scope module memwb $end
$var wire 32 g" aluResult [31:0] $end
$var wire 1 1 clk $end
$var wire 32 h" readData [31:0] $end
$var wire 1 K rst $end
$var wire 5 i" rtd [4:0] $end
$var wire 2 j" wb [1:0] $end
$var reg 71 k" out [70:0] $end
$upscope $end
$scope module mw32_mem $end
$var wire 32 l" in1 [31:0] $end
$var wire 32 m" in2 [31:0] $end
$var wire 32 n" out [31:0] $end
$var wire 1 o" sl $end
$upscope $end
$upscope $end
$upscope $end
$enddefinitions $end
#0
$dumpvars
0o"
b0 n"
b0 m"
b0 l"
b0 k"
b0 j"
b0 i"
b0 h"
b0 g"
b0 f"
b0 e"
0d"
0c"
b0 b"
b0 a"
b0 `"
b0 _"
b0 ^"
b0 ]"
b0 \"
b0 ["
0Z"
b0 Y"
b0 X"
b0 W"
1V"
b0 U"
b0 T"
b0 S"
b0 R"
b10 Q"
zP"
b10 O"
b0 N"
zM"
b0 L"
0K"
b0 J"
b0 I"
b0 H"
b0 G"
b0 F"
b0 E"
b0 D"
b0 C"
b0 B"
b0 A"
b0 @"
b0 ?"
b0 >"
b0 ="
b0 <"
b0 ;"
b0 :"
b0 9"
b0 8"
07"
b0 6"
05"
b0 4"
b1 3"
b0 2"
b0 1"
b0 0"
b0 /"
b0 ."
b0 -"
b0 ,"
b110 +"
b0 *"
b0 )"
b0 ("
0'"
b0 &"
b0 %"
b0 $"
b0 #"
b0 ""
b0 !"
b0 ~
b100100010 }
b0 |
b100100010 {
b0 z
b0 y
b0 x
0w
0v
b0 u
b0 t
b0 s
b0 r
b0 q
b0 p
b0 o
b0 n
b0 m
b0 l
b0 k
b0 j
b0 i
b100100010 h
b100100010 g
b0 f
ze
0d
1c
1b
b0 a
b0 `
b0 _
b0 ^
0]
b0 \
0[
b0 Z
0Y
b0 X
b10001101000010010000000000000000 W
b11000000000100 V
b10001101000010010000000000000000 U
b11000000000000 T
b11000000000100 S
b11000000000000 R
b11000000000000 Q
b11000000000100 P
b11000000000100 O
b0 N
b11000000000100 M
1L
1K
b0 J
b0 I
b11000000000100 H
b11000000000000 G
b11000000000100 F
b100100010 E
b0 D
b0 C
b0 B
b0 A
b0 @
b0 ?
b0 >
b0 =
0<
b10001101000010010000000000000000 ;
b0 :
b0 9
b0 8
b0 7
b0 6
b0 5
b0 4
b100100010 3
02
11
b10 0
b0 /
b0 .
1-
1,
0+
1*
1)
z(
bz '
bz &
bz %
b0 $
b0zzzzzzzzzzzzzzzzzzzzzzzzzzzz00 #
bz "
bz !
$end
#10
0)
01
#20
b1000 +"
b10 ,"
b11110000 E
b11110000 }
b11000000001000 F
b11000000001000 O
b11000000001000 P
b11 3"
b11110000 {
b11000000001000 H
b11000000001000 M
b11000000001000 S
b11000000001000 V
b11110000 h
b11110000 3
b11110000 g
b0 O"
b0 0
b0 Q"
b11000000000100 Q
b1111011110111100000100000 ;
b1111011110111100000100000 U
b1111011110111100000100000 W
b11000000000100 G
b11000000000100 R
b11000000000100 T
b1001 1"
b11000000000100 *"
b1000 0"
b1001 $"
b1000 #"
b11000000000100 x
b11000000000100 .
b11000000000100 N
b11000000000100 z
b11000000000100 ["
b100011 u
b100011 f
b100011 a
b1001 `
b1000 _
b1 `"
1Z"
b10 L"
1]
b1100000000010010001101000010010000000000000000 X
b1100000000010010001101000010010000000000000000 :
b10000110000000000000000000000000000000000000000000000000000000000000000000000000000000000000000000000000000000000000000000000000000000000000000000 4"
b10000110000000000000000000000000000000000000000000000000000000000000000000000000000000000000000000000000000000000000000000000000000000000000000000 9
b1000000000000000000000000000000000000000000000000000000000000000000000 a"
b1000000000000000000000000000000000000000000000000000000000000000000000 5
1)
11
0*
0K
#30
0)
01
#40
b110 +"
b0 ,"
b100100010 E
b100100010 }
b1 3"
b100100010 {
b100100010 h
b100100010 3
b100100010 g
b10 O"
b10 0
b10 Q"
b1001 D
b1001 Y"
b1001 ^"
b11000000001100 F
b11000000001100 O
b11000000001100 P
b1111 -"
b1111 1"
b11000000001000 *"
b1111 0"
b1111 $"
b1111 #"
b111100000100000 ~
b11110000010000000 y
b111100000100000 6
b111100000100000 !"
b111100000100000 2"
b11000000001000 x
b100001000010001000 .
b100001000010001000 N
b100001000010001000 z
b100001000010001000 ["
b0 u
b0 f
b0 a
b1111 `
b1111 _
b10 ]"
b11 `"
0Z"
b1001 W"
b0 L"
1K"
b1001 ;"
b1000 :"
b1001 ^
1[
b1 j"
15"
b11000000001100 H
b11000000001100 M
b11000000001100 S
b11000000001100 V
b1100000000100000000001111011110111100000100000 X
b1100000000100000000001111011110111100000100000 :
b1000110101000000000000000000000110000000001000000000000000000000000000000000000000000000000000000000000000000000000000000000000000000000000000100100000 4"
b1000110101000000000000000000000110000000001000000000000000000000000000000000000000000000000000000000000000000000000000000000000000000000000000100100000 9
b1000000000000000000000110000000001001000000000000000000000000000000000000000000000000000000000000000000000 a"
b1000000000000000000000110000000001001000000000000000000000000000000000000000000000000000000000000000000000 5
b11000000001000 Q
b11000000001000 G
b11000000001000 R
b11000000001000 T
1)
11
#50
0)
01
#60
b1 4
b1 e"
b1 h"
b1111 D
b1111 Y"
b1111 ^"
b11000000010000 F
b11000000010000 O
b11000000010000 P
17"
1'"
b1001 i"
b11 j"
1c"
b1001 6"
b1001 Z
1Y
b0 ]"
b1 `"
1Z"
b1111 X"
b1111 W"
b10 L"
b100000 N"
0K"
b111100000100000 I"
b1111 9"
b1111 ;"
b1111 :"
b1111 \
b1111 ^
0[
b11000000001100 *"
b11000000001100 x
b100001000010001100 .
b100001000010001100 N
b100001000010001100 z
b100001000010001100 ["
b11000000010000 H
b11000000010000 M
b11000000010000 S
b11000000010000 V
b1000000000000000000000000000000000000000000000000000000000000000000000 k"
b1000000000000000000000000000000000000000000000000000000000000000000000 =
b11010000000000000001000010000100010001000000000000000000000000000000000000000000000000000000000000000001001 a"
b11010000000000000001000010000100010001000000000000000000000000000000000000000000000000000000000000000001001 5
b1111010000110000000000000000000110000000010000000000000000000000000000000000000000000000000000000000000000000000000000000000001111000001000000111101111 4"
b1111010000110000000000000000000110000000010000000000000000000000000000000000000000000000000000000000000000000000000000000000001111000001000000111101111 9
b1100000000110000000001111011110111100000100000 X
b1100000000110000000001111011110111100000100000 :
b11000000001100 Q
b10001101000010100000000000000100 ;
b10001101000010100000000000000100 U
b10001101000010100000000000000100 W
b11000000001100 G
b11000000001100 R
b11000000001100 T
1)
11
#70
0)
01
#80
b1000 +"
b10 ,"
b11110000 E
b11110000 }
b11 3"
b11110000 {
b11110000 h
b11110000 3
b11110000 g
b10 ="
b10 8
b10 q
b10 F"
b10 <"
b10 7
b10 l
b10 A"
b0 4
b0 e"
b0 h"
b1 C
b1 j
b1 o
b1 ("
b1 ?"
b1 D"
b1 n"
b11000000010100 F
b11000000010100 O
b11000000010100 P
b0 -"
b1010 1"
b11000000010000 *"
b1000 0"
b1010 $"
b1000 #"
b100 ~
b10000 y
b100 6
b100 !"
b100 2"
b11000000010000 x
b11000000100000 .
b11000000100000 N
b11000000100000 z
b11000000100000 ["
b100011 u
b100011 f
b100011 a
b1010 `
b1000 _
b1111 i"
b1 j"
0c"
b1111 6"
b1111 Z
0Y
1o"
b1 m"
b1001 8"
b1001 )"
b11000000010100 H
b11000000010100 M
b11000000010100 S
b11000000010100 V
b1100000001000010001101000010100000000000000100 X
b1100000001000010001101000010100000000000000100 :
b1111010000110000000000000000000110000000011000000000000000000000000000000000000000000000000000000000000000000000000000000000001111000001000000111101111 4"
b1111010000110000000000000000000110000000011000000000000000000000000000000000000000000000000000000000000000000000000000000000001111000001000000111101111 9
b1000000000000000001000010000100011001000000000000000000000000000000000000000000000000000000000000000001111 a"
b1000000000000000001000010000100011001000000000000000000000000000000000000000000000000000000000000000001111 5
b11000000000000000000000000000000010000000000000000000000000000000001001 k"
b11000000000000000000000000000000010000000000000000000000000000000001001 =
b11000000010000 Q
b10001010010100000000000000011 ;
b10001010010100000000000000011 U
b10001010010100000000000000011 W
b11000000010000 G
b11000000010000 R
b11000000010000 T
1)
11
#90
0)
01
#100
b0 +"
b0 ,"
b0 3"
b101 {
b0 E
b0 }
b0 ="
b0 8
b0 q
b0 F"
b0 <"
b0 7
b0 l
b0 A"
1v
1+
1w
1<
b101 h
b101 3
b101 g
1d
12
0b
0,
0c
0-
0V"
0L
b100 U"
b100 /
b100 T"
b100 \"
b0 C
b0 j
b0 o
b0 ("
b0 ?"
b0 D"
b0 n"
b1010 D
b1010 Y"
b1010 ^"
b100 B
b100 J"
b100 S"
b11000000100000 F
b11000000100000 O
b11000000100000 P
0o"
b0 m"
b1111 8"
b1111 )"
b10 ]"
b11 `"
0Z"
b0 X"
b1010 W"
b0 L"
b100 N"
1K"
b100 I"
b0 9"
b1010 ;"
b1000 :"
b0 \
b1010 ^
1[
b11000000010100 *"
b1010 0"
b1010 #"
b11 ~
b1100 y
b11 6
b11 !"
b11 2"
b11000000010100 x
b11000000100000 .
b11000000100000 N
b11000000100000 z
b11000000100000 ["
b100 u
b100 f
b100 a
b1010 _
b11000000011000 H
b11000000011000 M
b11000000011000 S
b11000000011000 V
b1000000000000000000000000000000000000000000000000000000000000000001111 k"
b1000000000000000000000000000000000000000000000000000000000000000001111 =
b1000000000000000000000110000001000001000000000000000000000000000000000000000000000000000000000000000001111 a"
b1000000000000000000000110000001000001000000000000000000000000000000000000000000000000000000000000000001111 5
b1000110101000000000000000000000110000000100000000000000000000000000000000000000000000000000000000000000000000000000000000000000000000000001000101000000 4"
b1000110101000000000000000000000110000000100000000000000000000000000000000000000000000000000000000000000000000000000000000000000000000000001000101000000 9
b1100000001010000010001010010100000000000000011 X
b1100000001010000010001010010100000000000000011 :
b11000000010100 Q
b1111011110111100000100000 ;
b1111011110111100000100000 U
b1111011110111100000100000 W
b11000000010100 G
b11000000010100 R
b11000000010100 T
1)
11
#110
0)
01
#120
b100 G"
b100 ?
b100 H"
b100 r
b100 A
b100 t
b100 B"
b100 >
b100 R"
b100 m
b100 @
b100 s
1d
12
0b
0,
0c
0-
b10 ="
b10 8
b10 q
b10 F"
b10 <"
b10 7
b10 l
b10 A"
0V"
0L
b1000 U"
b1000 /
b1000 T"
b1000 \"
b100 B
b100 J"
b100 S"
b10 4
b10 e"
b10 h"
b0 ]"
b0 `"
b11 N"
0K"
b11 I"
b1010 :"
0]
0[
b1010 i"
b100 g"
b11 j"
1c"
b100 b"
b100 E"
b100 @"
b1010 6"
b100 p
b100 k
b1010 Z
1Y
b1010000000000000000000000000000110000000101000000000000000000000000000000000000000000000000000000000000000000000000000000000000000000000000110101000000 4"
b1010000000000000000000000000000110000000101000000000000000000000000000000000000000000000000000000000000000000000000000000000000000000000000110101000000 9
b11010000000000000000000110000001000000000000000000000000000000000001000000000000000000000000000000000001010 a"
b11010000000000000000000110000001000000000000000000000000000000000001000000000000000000000000000000000001010 5
1)
11
#130
1d
12
0b
0,
0c
0-
0)
01
#140
b10 B
b10 J"
b10 S"
b100 U"
b100 /
b100 T"
b100 \"
b10 I
b10 i
b10 %"
b10 ."
b10 J
b10 n
b10 &"
b10 /"
b10 G"
b10 ?
b10 H"
b10 B"
b10 >
b10 R"
b1 ="
b1 8
b1 q
b1 F"
b1 <"
b1 7
b1 l
b1 A"
b10 r
b10 A
b10 t
b10 m
b10 @
b10 s
b10 C
b10 j
b10 o
b10 ("
b10 ?"
b10 D"
b10 n"
b0 4
b0 e"
b0 h"
1o"
b10 m"
b100 l"
b1010 8"
b1010 )"
b1000 g"
b0 j"
0c"
b1000 b"
b1000 E"
b1000 @"
05"
b1000 p
b1000 k
0Y
b11000000000000000000000000000000100000000000000000000000000000010001010 k"
b11000000000000000000000000000000100000000000000000000000000000010001010 =
b110000001000000000000000000000000000000000010000000000000000000000000000000000001010 a"
b110000001000000000000000000000000000000000010000000000000000000000000000000000001010 5
1d
12
0b
0,
0c
0-
1)
11
#150
b1 +"
b100 ,"
b101 E
b101 }
0d
02
1b
1,
1c
1-
0)
01
#160
b110 +"
b0 ,"
b1 3"
b100100010 E
b100100010 }
1V"
1L
b100100010 {
b10 B
b10 J"
b10 S"
b0 U"
b0 /
b0 T"
b0 \"
0v
0+
0w
0<
b100100010 h
b100100010 3
b100100010 g
b110 O"
b110 0
b110 Q"
b10 G"
b10 ?
b10 H"
b10 B"
b10 >
b10 R"
b0 r
b0 A
b0 t
b0 m
b0 @
b0 s
b0 ="
b0 8
b0 q
b0 F"
b0 <"
b0 7
b0 l
b0 A"
b11000000100100 F
b11000000100100 O
b11000000100100 P
b1000 C
b1000 j
b1000 o
b1000 ("
b1000 ?"
b1000 D"
b1000 n"
b0 1"
b11000000011000 *"
b0 0"
b0 $"
b0 J
b0 n
b0 &"
b0 /"
b0 #"
b0 I
b0 i
b0 %"
b0 ."
b0 ~
b0 y
b0 6
b0 !"
b0 2"
b11000000011000 x
b11000000011000 .
b11000000011000 N
b11000000011000 z
b11000000011000 ["
b0 u
b0 f
b0 a
b0 `
b0 _
b10 _"
b100 ]"
b1 L"
b10 C"
b10 >"
b100 g"
b100 b"
b100 E"
b100 @"
b100 p
b100 k
0o"
b0 m"
b1000 l"
07"
0'"
b11000000100100 H
b11000000100100 M
b11000000100100 S
b11000000100100 V
b1100000001100000000000000000000000000000000000 X
b1100000001100000000000000000000000000000000000 :
b1010001000001000000000000000000110000000101000000000000000000000000000000001000000000000000000000000000000010000000000000000000000000000000110101000000 4"
b1010001000001000000000000000000110000000101000000000000000000000000000000001000000000000000000000000000000010000000000000000000000000000000110101000000 9
b110000001000000000000000000000000000000000001000000000000000000000000000000000001010 a"
b110000001000000000000000000000000000000000001000000000000000000000000000000000001010 5
b100001010 k"
b100001010 =
b11000000100000 Q
b1001010100101100000100000 ;
b1001010100101100000100000 U
b1001010100101100000100000 W
b11000000100000 G
b11000000100000 R
b11000000100000 T
1)
11
#170
0)
01
#180
b0 B
b0 J"
b0 S"
b0 O"
b0 0
b0 Q"
b0 G"
b0 ?
b0 H"
b0 B"
b0 >
b0 R"
b10 r
b10 A
b10 t
b1 m
b1 @
b1 s
b100 C
b100 j
b100 o
b100 ("
b100 ?"
b100 D"
b100 n"
b0 D
b0 Y"
b0 ^"
b11000000101000 F
b11000000101000 O
b11000000101000 P
b100 l"
b0 g"
b10 f"
b0 b"
b0 E"
b0 @"
b0 p
b0 k
b0 _"
b0 ]"
b1 `"
1Z"
b0 W"
b10 L"
b0 N"
b0 I"
b0 C"
b0 >"
b0 ;"
b0 :"
1]
b0 ^
b1011 -"
b1010 1"
b11000000100100 *"
b1001 0"
b1010 $"
b10 J
b10 n
b10 &"
b10 /"
b1001 #"
b1 I
b1 i
b1 %"
b1 ."
b101100000100000 ~
b10110000010000000 y
b101100000100000 6
b101100000100000 !"
b101100000100000 2"
b11000000100100 x
b11001000010100100 .
b11001000010100100 N
b11001000010100100 z
b11001000010100100 ["
b1010 `
b1001 _
b11000000101000 H
b11000000101000 M
b11000000101000 S
b11000000101000 V
b10001010 k"
b10001010 =
b100000000000000000000110000000110001000000000000000000000000000000000000000000000000000000000000001001010 a"
b100000000000000000000110000000110001000000000000000000000000000000000000000000000000000000000000001001010 5
b10000110000000000000000000110000000110000000000000000000000000000000000000000000000000000000000000000000000000000000000000000000000000000000000000 4"
b10000110000000000000000000110000000110000000000000000000000000000000000000000000000000000000000000000000000000000000000000000000000000000000000000 9
b1100000010010000000001001010100101100000100000 X
b1100000010010000000001001010100101100000100000 :
b11000000100100 Q
b10001011010110000000000000010 ;
b10001011010110000000000000010 U
b10001011010110000000000000010 W
b11000000100100 G
b11000000100100 R
b11000000100100 T
1)
11
#190
0)
01
#200
1v
1+
1w
1<
b0 +"
b0 3"
b101 {
b10 B
b10 J"
b10 S"
0V"
0L
b11 U"
b11 /
b11 T"
b11 \"
b0 E
b0 }
b0 r
b0 A
b0 t
b0 m
b0 @
b0 s
b101 h
b101 3
b101 g
b10 O"
b10 0
b10 Q"
b10 G"
b10 ?
b10 H"
b1 B"
b1 >
b1 R"
1d
12
0b
0,
0c
0-
b1011 D
b1011 Y"
b1011 ^"
b0 C
b0 j
b0 o
b0 ("
b0 ?"
b0 D"
b0 n"
b11000000110000 F
b11000000110000 O
b11000000110000 P
b0 -"
b1011 1"
b11000000101000 *"
b1011 0"
b1011 $"
b0 J
b0 n
b0 &"
b0 /"
b1011 #"
b0 I
b0 i
b0 %"
b0 ."
b10 ~
b1000 y
b10 6
b10 !"
b10 2"
b11000000101000 x
b11000000110000 .
b11000000110000 N
b11000000110000 z
b11000000110000 ["
b100 u
b100 f
b100 a
b1011 `
b1011 _
b10 _"
b1011 X"
b1010 W"
b100000 N"
b101100000100000 I"
b10 C"
b1 >"
b1011 9"
b1010 ;"
b1001 :"
b1011 \
b1010 ^
b0 i"
b1 j"
b0 f"
b0 6"
15"
b0 Z
b0 l"
b11000000101100 H
b11000000101100 M
b11000000101100 S
b11000000101100 V
b1100000010100000010001011010110000000000000010 X
b1100000010100000010001011010110000000000000010 :
b1001010000110000000000000000000110000001001000000000000000000000000000000000100000000000000000000000000000010000000000000000001011000001000000101001011 4"
b1001010000110000000000000000000110000001001000000000000000000000000000000000100000000000000000000000000000010000000000000000001011000001000000101001011 9
b1000000000000000000110010000101001001000000000000000000000000000000000000000000000000000000000000000000000 a"
b1000000000000000000110010000101001001000000000000000000000000000000000000000000000000000000000000000000000 5
b1010 k"
b1010 =
b11000000101000 Q
b1111011110111100000100000 ;
b1111011110111100000100000 U
b1111011110111100000100000 W
b11000000101000 G
b11000000101000 R
b11000000101000 T
1)
11
#210
0)
01
#220
b11 r
b11 A
b11 t
b11 m
b11 @
b11 s
0V"
0L
b1 +"
b100 ,"
b11 B
b11 J"
b11 S"
b110 U"
b110 /
b110 T"
b110 \"
b101 E
b101 }
b11 G"
b11 ?
b11 H"
b11 B"
b11 >
b11 R"
b10 ="
b10 8
b10 q
b10 F"
b10 <"
b10 7
b10 l
b10 A"
0d
02
1b
1,
1c
1-
17"
b0 8"
1'"
b0 )"
b1011 i"
b11 g"
b10 f"
b11 b"
b11 E"
b11 @"
b1011 6"
b11 p
b11 k
b1011 Z
b0 _"
b0 `"
0Z"
b0 X"
b1011 W"
b0 L"
b10 N"
b10 I"
b0 C"
b0 >"
b0 9"
b1011 ;"
b1011 :"
0]
b0 \
b1011 ^
b1000000000000000000000000000000000000000000000000000000000000000000000 k"
b1000000000000000000000000000000000000000000000000000000000000000000000 =
b1000000000000000000000110000001100000000000000000000000000000000000110000000000000000000000000000001001011 a"
b1000000000000000000000110000001100000000000000000000000000000000000110000000000000000000000000000001001011 5
b1011000000000000000000000000000110000001010000000000000000000000000000000000000000000000000000000000000000000000000000000000000000000000000100101100000 4"
b1011000000000000000000000000000110000001010000000000000000000000000000000000000000000000000000000000000000000000000000000000000000000000000100101100000 9
1)
11
#230
0)
01
#240
b110 +"
b0 ,"
b1 3"
b100100010 E
b100100010 }
1V"
1L
b100100010 {
b11 B
b11 J"
b11 S"
b0 U"
b0 /
b0 T"
b0 \"
0v
0+
0w
0<
b100100010 h
b100100010 3
b100100010 g
b110 O"
b110 0
b110 Q"
b11 G"
b11 ?
b11 H"
b11 B"
b11 >
b11 R"
b11 r
b11 A
b11 t
b11 m
b11 @
b11 s
b1 ="
b1 8
b1 q
b1 F"
b1 <"
b1 7
b1 l
b1 A"
b11000000110100 F
b11000000110100 O
b11000000110100 P
b11 C
b11 j
b11 o
b11 ("
b11 ?"
b11 D"
b11 n"
b0 1"
b11000000101100 *"
b0 0"
b0 $"
b0 #"
b0 ~
b0 y
b0 6
b0 !"
b0 2"
b11000000101100 x
b11000000101100 .
b11000000101100 N
b11000000101100 z
b11000000101100 ["
b0 u
b0 f
b0 a
b0 `
b0 _
b100 ]"
b1 L"
b110 g"
b0 j"
b0 f"
b110 b"
b110 E"
b110 @"
05"
b110 p
b110 k
b11 l"
b1011 8"
b1011 )"
b11000000110100 H
b11000000110100 M
b11000000110100 S
b11000000110100 V
b1100000010110000000000000000000000000000000000 X
b1100000010110000000000000000000000000000000000 :
b1011001000001000000000000000000110000001010000000000000000000000000000000000000000000000000000000000000000000000000000000000000000000000000100101100000 4"
b1011001000001000000000000000000110000001010000000000000000000000000000000000000000000000000000000000000000000000000000000000000000000000000100101100000 9
b110000001100000000000000000000000000000000001100000000000000000000000000000000001011 a"
b110000001100000000000000000000000000000000001100000000000000000000000000000000001011 5
b1000000000000000000000000000000000000000000000000000000000000001101011 k"
b1000000000000000000000000000000000000000000000000000000000000001101011 =
b11000000110000 Q
b11000000110000 G
b11000000110000 R
b11000000110000 T
1)
11
#250
0)
01
